<?xml version="1.0" encoding="UTF-8"?>
<svg xmlns="http://www.w3.org/2000/svg" xmlns:xlink="http://www.w3.org/1999/xlink" width="432.398pt" height="291.836pt" viewBox="0 0 432.398 291.836" version="1.1">
<defs>
<g>
<symbol overflow="visible" id="glyph0-0">
<path style="stroke:none;" d="M 0.484375 0 L 4.296875 0 L 4.296875 -5.09375 L 0.484375 -5.09375 Z M 0.953125 -0.484375 L 0.953125 -4.625 L 3.828125 -4.625 L 3.828125 -0.484375 Z M 0.953125 -0.484375 "/>
</symbol>
<symbol overflow="visible" id="glyph0-1">
<path style="stroke:none;" d="M 0.296875 0 L 2.3125 0 L 2.3125 -0.390625 L 1.734375 -0.46875 L 1.5625 -0.65625 L 1.5625 -5.875 L 3.734375 0 L 4.15625 0 L 6.421875 -5.96875 L 6.421875 -0.578125 L 6.328125 -0.4375 L 5.6875 -0.390625 L 5.6875 0 L 7.96875 0 L 7.96875 -0.390625 L 7.375 -0.4375 L 7.265625 -0.578125 L 7.265625 -5.84375 L 7.375 -5.96875 L 7.96875 -6.03125 L 7.96875 -6.421875 L 5.921875 -6.421875 L 5.921875 -6.125 L 4.109375 -1.359375 L 2.3125 -6.15625 L 2.3125 -6.421875 L 0.28125 -6.421875 L 0.28125 -6.03125 L 0.921875 -5.96875 L 1.046875 -5.84375 L 1.046875 -0.65625 L 0.875 -0.46875 L 0.296875 -0.390625 Z M 0.296875 0 "/>
</symbol>
<symbol overflow="visible" id="glyph0-2">
<path style="stroke:none;" d="M 2.578125 -4.6875 C 1.28125 -4.6875 0.359375 -3.734375 0.359375 -2.296875 C 0.359375 -0.890625 1.296875 0.09375 2.578125 0.09375 C 3.859375 0.09375 4.796875 -0.890625 4.796875 -2.296875 C 4.796875 -3.71875 3.859375 -4.6875 2.578125 -4.6875 Z M 2.578125 -4.28125 C 3.34375 -4.28125 3.90625 -3.53125 3.90625 -2.296875 C 3.90625 -1.0625 3.34375 -0.328125 2.578125 -0.328125 C 1.8125 -0.328125 1.25 -1.078125 1.25 -2.296875 C 1.25 -3.546875 1.796875 -4.28125 2.578125 -4.28125 Z M 2.578125 -4.28125 "/>
</symbol>
<symbol overflow="visible" id="glyph0-3">
<path style="stroke:none;" d="M 0.265625 0 L 2.5 0 L 2.5 -0.34375 L 1.953125 -0.390625 L 1.78125 -0.546875 L 1.78125 -7.03125 L 1.421875 -7.03125 L 0.265625 -6.6875 L 0.265625 -6.390625 L 1 -6.390625 L 1 -0.546875 L 0.828125 -0.390625 L 0.265625 -0.34375 Z M 0.265625 0 "/>
</symbol>
<symbol overflow="visible" id="glyph0-4">
<path style="stroke:none;" d="M 4.28125 -1.015625 C 3.734375 -0.65625 3.265625 -0.453125 2.78125 -0.453125 C 1.8125 -0.453125 1.171875 -1.1875 1.171875 -2.40625 L 1.171875 -2.515625 L 4.28125 -2.515625 C 4.28125 -2.625 4.28125 -2.71875 4.28125 -2.8125 C 4.28125 -3.984375 3.609375 -4.6875 2.5625 -4.6875 C 1.28125 -4.6875 0.359375 -3.703125 0.359375 -2.265625 C 0.359375 -0.859375 1.21875 0.09375 2.484375 0.09375 C 3.09375 0.09375 3.703125 -0.109375 4.28125 -0.484375 Z M 3.4375 -2.921875 L 1.21875 -2.921875 C 1.28125 -3.734375 1.828125 -4.265625 2.4375 -4.265625 C 3.078125 -4.265625 3.4375 -3.84375 3.4375 -3.0625 Z M 3.4375 -2.921875 "/>
</symbol>
<symbol overflow="visible" id="glyph0-5">
<path style="stroke:none;" d="M 4.0625 -0.40625 L 4.0625 -0.90625 C 3.65625 -0.625 3.265625 -0.5 2.84375 -0.5 C 1.859375 -0.5 1.21875 -1.1875 1.21875 -2.375 C 1.21875 -3.578125 1.8125 -4.3125 2.625 -4.3125 C 2.796875 -4.3125 2.9375 -4.265625 3.09375 -4.171875 L 3.09375 -3.390625 C 3.234375 -3.296875 3.375 -3.25 3.515625 -3.25 C 3.84375 -3.25 4.046875 -3.453125 4.046875 -3.765625 C 4.046875 -4.3125 3.53125 -4.6875 2.625 -4.6875 C 1.28125 -4.6875 0.359375 -3.734375 0.359375 -2.296875 C 0.359375 -0.890625 1.203125 0.0625 2.5 0.0625 C 3.015625 0.0625 3.53125 -0.09375 4.0625 -0.40625 Z M 4.0625 -0.40625 "/>
</symbol>
<symbol overflow="visible" id="glyph0-6">
<path style="stroke:none;" d="M 1.359375 -4.6875 L 0.25 -4.34375 L 0.25 -4.046875 L 0.921875 -4.046875 L 0.921875 -1.375 C 0.921875 -0.40625 1.390625 0.09375 2.203125 0.09375 C 2.671875 0.09375 3.1875 -0.125 3.765625 -0.53125 L 3.765625 0 L 5.171875 0 L 5.171875 -0.34375 L 4.71875 -0.390625 L 4.546875 -0.546875 L 4.546875 -4.6875 L 4.1875 -4.6875 L 3.078125 -4.34375 L 3.078125 -4.046875 L 3.765625 -4.046875 L 3.765625 -0.796875 C 3.359375 -0.609375 3 -0.515625 2.65625 -0.515625 C 2.015625 -0.515625 1.71875 -0.84375 1.71875 -1.53125 L 1.71875 -4.6875 Z M 1.359375 -4.6875 "/>
</symbol>
<symbol overflow="visible" id="glyph0-7">
<path style="stroke:none;" d="M 0.265625 0 L 4.84375 0 L 4.84375 -1.734375 L 4.34375 -1.734375 L 4.171875 -0.59375 L 4.046875 -0.4375 L 1.890625 -0.4375 L 1.890625 -5.84375 L 2.046875 -5.96875 L 2.59375 -6.03125 L 2.59375 -6.421875 L 0.265625 -6.421875 L 0.265625 -6.03125 L 0.859375 -5.96875 L 1.015625 -5.84375 L 1.015625 -0.578125 L 0.859375 -0.4375 L 0.265625 -0.390625 Z M 0.265625 0 "/>
</symbol>
<symbol overflow="visible" id="glyph0-8">
<path style="stroke:none;" d="M 1.46875 -6.765625 C 1.171875 -6.765625 0.921875 -6.53125 0.921875 -6.21875 C 0.921875 -5.90625 1.171875 -5.671875 1.46875 -5.671875 C 1.78125 -5.671875 2.03125 -5.90625 2.03125 -6.21875 C 2.03125 -6.515625 1.78125 -6.765625 1.46875 -6.765625 Z M 1.4375 -4.640625 L 0.328125 -4.296875 L 0.328125 -4 L 1 -4 L 1 -0.546875 L 0.84375 -0.390625 L 0.328125 -0.34375 L 0.328125 0 L 2.484375 0 L 2.484375 -0.34375 L 1.96875 -0.390625 L 1.796875 -0.546875 L 1.796875 -4.640625 Z M 1.4375 -4.640625 "/>
</symbol>
<symbol overflow="visible" id="glyph0-9">
<path style="stroke:none;" d="M 0.28125 0 L 2.375 0 L 2.375 -0.34375 L 1.921875 -0.390625 L 1.765625 -0.546875 L 1.765625 -3.75 C 2.171875 -3.953125 2.53125 -4.0625 2.828125 -4.0625 C 3.53125 -4.0625 3.796875 -3.78125 3.796875 -3.078125 L 3.796875 -0.546875 L 3.640625 -0.390625 L 3.171875 -0.34375 L 3.171875 0 L 5.265625 0 L 5.265625 -0.34375 L 4.75 -0.390625 L 4.59375 -0.546875 L 4.59375 -3.234375 C 4.59375 -4.203125 4.125 -4.6875 3.296875 -4.6875 C 2.890625 -4.6875 2.40625 -4.46875 1.765625 -4.125 L 1.765625 -4.640625 L 1.390625 -4.640625 L 0.28125 -4.296875 L 0.28125 -4 L 0.96875 -4 L 0.96875 -0.546875 L 0.796875 -0.390625 L 0.28125 -0.34375 Z M 0.28125 0 "/>
</symbol>
<symbol overflow="visible" id="glyph0-10">
<path style="stroke:none;" d="M 3.1875 -0.546875 L 3.3125 0 L 4.671875 0 L 4.671875 -0.34375 L 4.15625 -0.390625 L 3.984375 -0.546875 L 3.984375 -3.3125 C 3.984375 -4.28125 3.5625 -4.6875 2.5625 -4.6875 C 1.359375 -4.6875 0.625 -4.203125 0.625 -3.609375 C 0.625 -3.390625 0.703125 -3.3125 0.921875 -3.3125 L 1.59375 -3.3125 L 1.59375 -4.125 C 1.84375 -4.234375 2.078125 -4.28125 2.3125 -4.28125 C 3 -4.28125 3.1875 -3.953125 3.1875 -3.203125 L 3.1875 -2.890625 C 1.28125 -2.4375 0.40625 -2.15625 0.40625 -1.15625 C 0.40625 -0.4375 0.875 0.0625 1.625 0.0625 C 2.078125 0.0625 2.59375 -0.140625 3.1875 -0.546875 Z M 3.1875 -0.875 C 2.71875 -0.609375 2.328125 -0.453125 2.015625 -0.453125 C 1.53125 -0.453125 1.25 -0.765625 1.25 -1.234375 C 1.25 -1.9375 1.84375 -2.1875 3.1875 -2.5625 Z M 3.1875 -0.875 "/>
</symbol>
<symbol overflow="visible" id="glyph0-11">
<path style="stroke:none;" d="M 0.28125 0 L 2.59375 0 L 2.59375 -0.34375 L 1.921875 -0.390625 L 1.765625 -0.546875 L 1.765625 -3.28125 C 2.15625 -3.734375 2.484375 -3.984375 2.796875 -3.984375 C 3 -3.984375 3.171875 -3.90625 3.296875 -3.75 L 3.59375 -3.75 L 3.59375 -4.578125 C 3.390625 -4.65625 3.21875 -4.6875 3.015625 -4.6875 C 2.9375 -4.6875 2.859375 -4.6875 2.78125 -4.671875 C 2.4375 -4.40625 2.09375 -4.09375 1.765625 -3.75 L 1.765625 -4.640625 L 1.390625 -4.640625 L 0.28125 -4.296875 L 0.28125 -4 L 0.96875 -4 L 0.96875 -0.546875 L 0.796875 -0.390625 L 0.28125 -0.34375 Z M 0.28125 0 "/>
</symbol>
<symbol overflow="visible" id="glyph0-12">
<path style="stroke:none;" d="M 2.171875 -2.75 C 3.34375 -3.265625 3.921875 -3.90625 3.921875 -4.796875 C 3.921875 -5.828125 3.15625 -6.53125 1.9375 -6.53125 C 1.078125 -6.53125 0.53125 -6.125 0.53125 -5.640625 C 0.53125 -5.328125 0.734375 -5.140625 1.09375 -5.140625 C 1.15625 -5.140625 1.21875 -5.140625 1.265625 -5.140625 L 1.65625 -6.09375 L 1.71875 -6.09375 C 2.5625 -6.09375 3.046875 -5.59375 3.046875 -4.75 C 3.046875 -3.953125 2.578125 -3.375 1.65625 -3.03125 L 1.65625 -1.640625 L 2.171875 -1.640625 Z M 1.90625 -1 C 1.609375 -1 1.375 -0.765625 1.375 -0.453125 C 1.375 -0.15625 1.609375 0.09375 1.90625 0.09375 C 2.21875 0.09375 2.46875 -0.15625 2.46875 -0.453125 C 2.46875 -0.765625 2.21875 -1 1.90625 -1 Z M 1.90625 -1 "/>
</symbol>
<symbol overflow="visible" id="glyph0-13">
<path style="stroke:none;" d="M 0.15625 -6.421875 L 0.15625 -4.9375 L 0.671875 -4.9375 L 0.8125 -5.828125 L 0.953125 -5.96875 L 2.421875 -5.96875 L 2.421875 -0.578125 L 2.25 -0.4375 L 1.609375 -0.390625 L 1.609375 0 L 4.109375 0 L 4.109375 -0.390625 L 3.46875 -0.4375 L 3.296875 -0.578125 L 3.296875 -5.96875 L 4.765625 -5.96875 L 4.890625 -5.828125 L 5.03125 -4.9375 L 5.5625 -4.9375 L 5.5625 -6.421875 Z M 0.15625 -6.421875 "/>
</symbol>
<symbol overflow="visible" id="glyph0-14">
<path style="stroke:none;" d="M -0.015625 -4.59375 L -0.015625 -4.25 L 0.5625 -4.1875 L 1.84375 0 L 2.421875 0 L 3.71875 -3.625 L 4.875 0 L 5.46875 0 L 6.84375 -4.171875 L 7.375 -4.25 L 7.375 -4.59375 L 5.6875 -4.59375 L 5.6875 -4.25 L 6.203125 -4.203125 L 6.265625 -4.046875 L 5.296875 -0.953125 L 4.171875 -4.59375 L 3.578125 -4.59375 L 2.296875 -0.953125 L 1.4375 -4.046875 L 1.546875 -4.203125 L 2.0625 -4.25 L 2.0625 -4.59375 Z M -0.015625 -4.59375 "/>
</symbol>
<symbol overflow="visible" id="glyph0-15">
<path style="stroke:none;" d="M 4.34375 -4.046875 C 4.125 -4.46875 3.765625 -4.6875 3.296875 -4.6875 C 2.890625 -4.6875 2.390625 -4.5 1.765625 -4.125 L 1.765625 -4.640625 L 1.390625 -4.640625 L 0.28125 -4.296875 L 0.28125 -4 L 0.96875 -4 L 0.96875 -0.546875 L 0.796875 -0.390625 L 0.28125 -0.34375 L 0.28125 0 L 2.375 0 L 2.375 -0.34375 L 1.921875 -0.390625 L 1.765625 -0.546875 L 1.765625 -3.75 C 2.1875 -3.953125 2.53125 -4.0625 2.84375 -4.0625 C 3.421875 -4.0625 3.6875 -3.75 3.6875 -3.078125 L 3.6875 -0.546875 L 3.53125 -0.390625 L 3.0625 -0.34375 L 3.0625 0 L 5.109375 0 L 5.109375 -0.34375 L 4.65625 -0.390625 L 4.484375 -0.546875 L 4.484375 -3.75 C 4.890625 -3.953125 5.265625 -4.0625 5.5625 -4.0625 C 6.15625 -4.0625 6.421875 -3.75 6.421875 -3.078125 L 6.421875 -0.546875 L 6.25 -0.390625 L 5.796875 -0.34375 L 5.796875 0 L 7.890625 0 L 7.890625 -0.34375 L 7.375 -0.390625 L 7.21875 -0.546875 L 7.21875 -3.234375 C 7.21875 -4.1875 6.734375 -4.6875 5.984375 -4.6875 C 5.609375 -4.6875 5.0625 -4.46875 4.34375 -4.046875 Z M 4.34375 -4.046875 "/>
</symbol>
<symbol overflow="visible" id="glyph0-16">
<path style="stroke:none;" d="M 0.375 1.609375 C 1.34375 1.515625 1.984375 0.765625 1.984375 -0.0625 C 1.984375 -0.671875 1.703125 -1.015625 1.21875 -1.015625 C 0.90625 -1.015625 0.65625 -0.796875 0.65625 -0.484375 C 0.65625 -0.3125 0.703125 -0.1875 0.8125 -0.0625 L 1.421875 -0.0625 L 1.421875 0.03125 C 1.421875 0.734375 1.078125 1.171875 0.375 1.296875 Z M 0.375 1.609375 "/>
</symbol>
<symbol overflow="visible" id="glyph0-17">
<path style="stroke:none;" d="M 0.578125 -0.1875 C 1.015625 0 1.609375 0.109375 2.296875 0.109375 C 3.828125 0.109375 4.765625 -0.671875 4.765625 -1.8125 C 4.765625 -2.234375 4.625 -2.578125 4.34375 -2.859375 C 3.90625 -3.296875 3.390625 -3.4375 2.90625 -3.640625 C 2.03125 -4.015625 1.5625 -4.25 1.5625 -4.890625 C 1.5625 -5.59375 2.0625 -6.046875 2.875 -6.046875 C 3.203125 -6.046875 3.484375 -5.984375 3.734375 -5.859375 L 3.875 -5.6875 L 4.015625 -4.78125 L 4.515625 -4.78125 L 4.515625 -6.265625 C 3.953125 -6.4375 3.40625 -6.53125 2.890625 -6.53125 C 1.53125 -6.53125 0.671875 -5.78125 0.671875 -4.6875 C 0.671875 -3.765625 1.234375 -3.40625 2.296875 -2.953125 C 3.34375 -2.5 3.890625 -2.328125 3.890625 -1.546875 C 3.890625 -0.875 3.375 -0.390625 2.453125 -0.390625 C 2.015625 -0.390625 1.65625 -0.46875 1.375 -0.609375 L 1.25 -0.78125 L 1.140625 -1.875 L 0.578125 -1.875 Z M 0.578125 -0.1875 "/>
</symbol>
<symbol overflow="visible" id="glyph0-18">
<path style="stroke:none;" d="M 0.84375 -4.03125 L 0.84375 -0.9375 C 0.84375 -0.265625 1.046875 0.03125 1.84375 0.03125 C 2.203125 0.03125 2.640625 -0.03125 3.09375 -0.1875 L 3.09375 -0.53125 C 2.875 -0.484375 2.65625 -0.453125 2.421875 -0.453125 C 1.765625 -0.453125 1.640625 -0.78125 1.640625 -1.5 L 1.640625 -4.03125 L 3.09375 -4.03125 L 3.09375 -4.46875 L 1.640625 -4.46875 L 1.640625 -5.484375 L 1.28125 -5.484375 L 0.875 -4.59375 L 0.234375 -4.328125 L 0.234375 -4.03125 Z M 0.84375 -4.03125 "/>
</symbol>
<symbol overflow="visible" id="glyph0-19">
<path style="stroke:none;" d="M 1.34375 -7.03125 L 0.1875 -6.6875 L 0.1875 -6.390625 L 0.921875 -6.390625 L 0.921875 -0.546875 L 0.75 -0.390625 L 0.234375 -0.34375 L 0.234375 0 L 2.328125 0 L 2.328125 -0.34375 L 1.890625 -0.390625 L 1.71875 -0.546875 L 1.71875 -3.75 C 2.125 -3.953125 2.484375 -4.0625 2.78125 -4.0625 C 3.484375 -4.0625 3.75 -3.78125 3.75 -3.078125 L 3.75 -0.546875 L 3.578125 -0.390625 L 3.140625 -0.34375 L 3.140625 0 L 5.21875 0 L 5.21875 -0.34375 L 4.71875 -0.390625 L 4.546875 -0.546875 L 4.546875 -3.234375 C 4.546875 -4.203125 4.09375 -4.6875 3.265625 -4.6875 C 2.84375 -4.6875 2.359375 -4.46875 1.71875 -4.125 L 1.71875 -7.03125 Z M 1.34375 -7.03125 "/>
</symbol>
<symbol overflow="visible" id="glyph0-20">
<path style="stroke:none;" d="M 3.53125 -4.421875 C 3.171875 -4.609375 2.8125 -4.6875 2.453125 -4.6875 C 1.3125 -4.6875 0.59375 -4.046875 0.59375 -3.125 C 0.59375 -2.40625 1.046875 -1.84375 1.78125 -1.671875 C 1.46875 -1.3125 1.3125 -1.015625 1.3125 -0.765625 C 1.3125 -0.609375 1.359375 -0.46875 1.421875 -0.328125 C 0.765625 -0.21875 0.375 0.234375 0.375 0.84375 C 0.375 1.609375 1.015625 2.078125 2.109375 2.078125 C 2.84375 2.078125 3.5 1.859375 4 1.453125 C 4.375 1.140625 4.578125 0.734375 4.578125 0.375 C 4.578125 -0.328125 4.078125 -0.625 2.953125 -0.796875 L 2.03125 -0.9375 C 2.03125 -1.046875 2.015625 -1.125 2.015625 -1.171875 C 2.015625 -1.3125 2.0625 -1.46875 2.125 -1.59375 L 2.28125 -1.59375 C 3.390625 -1.59375 4.109375 -2.234375 4.109375 -3.09375 C 4.109375 -3.421875 4.03125 -3.703125 3.84375 -3.984375 L 4.890625 -3.984375 L 4.890625 -4.421875 Z M 2.359375 -4.328125 C 2.90625 -4.328125 3.296875 -3.875 3.296875 -3.140625 C 3.296875 -2.421875 2.90625 -1.96875 2.359375 -1.96875 C 1.796875 -1.96875 1.421875 -2.421875 1.421875 -3.140625 C 1.421875 -3.875 1.796875 -4.328125 2.359375 -4.328125 Z M 1.96875 -0.28125 L 2.890625 -0.109375 C 3.5625 0.015625 3.875 0.109375 3.875 0.625 C 3.875 1.171875 3.296875 1.640625 2.453125 1.640625 C 1.65625 1.640625 1.140625 1.203125 1.140625 0.65625 C 1.140625 0.234375 1.4375 -0.125 1.96875 -0.28125 Z M 1.96875 -0.28125 "/>
</symbol>
<symbol overflow="visible" id="glyph0-21">
<path style="stroke:none;" d="M 3.296875 -4.484375 C 2.96875 -4.625 2.59375 -4.6875 2.171875 -4.6875 C 1.078125 -4.6875 0.484375 -4.203125 0.484375 -3.359375 C 0.484375 -2.71875 0.90625 -2.40625 1.71875 -2.046875 C 2.34375 -1.765625 2.6875 -1.59375 2.6875 -1.09375 C 2.6875 -0.640625 2.34375 -0.3125 1.78125 -0.3125 C 1.515625 -0.3125 1.25 -0.390625 0.96875 -0.546875 L 0.859375 -1.359375 L 0.40625 -1.359375 L 0.40625 -0.109375 C 0.734375 0.015625 1.15625 0.09375 1.640625 0.09375 C 2.765625 0.09375 3.4375 -0.453125 3.4375 -1.34375 C 3.4375 -1.703125 3.296875 -1.984375 3.0625 -2.171875 C 2.75 -2.421875 2.390625 -2.5625 2.0625 -2.71875 C 1.515625 -2.984375 1.25 -3.1875 1.25 -3.59375 C 1.25 -4.03125 1.53125 -4.28125 2.03125 -4.28125 C 2.265625 -4.28125 2.5 -4.21875 2.75 -4.078125 L 2.828125 -3.40625 L 3.296875 -3.40625 Z M 3.296875 -4.484375 "/>
</symbol>
<symbol overflow="visible" id="glyph0-22">
<path style="stroke:none;" d="M 1.515625 -4.59375 C 1.1875 -4.59375 0.921875 -4.34375 0.921875 -4 C 0.921875 -3.65625 1.1875 -3.390625 1.515625 -3.390625 C 1.859375 -3.390625 2.125 -3.65625 2.125 -4 C 2.125 -4.34375 1.859375 -4.59375 1.515625 -4.59375 Z M 0.625 1.609375 C 1.59375 1.515625 2.234375 0.765625 2.234375 -0.0625 C 2.234375 -0.671875 1.9375 -1.015625 1.46875 -1.015625 C 1.140625 -1.015625 0.90625 -0.796875 0.90625 -0.484375 C 0.90625 -0.3125 0.953125 -0.1875 1.046875 -0.0625 L 1.671875 -0.0625 L 1.671875 0.03125 C 1.671875 0.734375 1.3125 1.171875 0.625 1.296875 Z M 0.625 1.609375 "/>
</symbol>
<symbol overflow="visible" id="glyph0-23">
<path style="stroke:none;" d="M -0.125 -6.421875 L -0.125 -6.03125 L 0.453125 -5.9375 L 2.359375 -2.59375 L 2.359375 -0.578125 L 2.203125 -0.4375 L 1.5625 -0.390625 L 1.5625 0 L 4.03125 0 L 4.03125 -0.390625 L 3.390625 -0.4375 L 3.234375 -0.578125 L 3.234375 -2.71875 L 5.21875 -5.90625 L 5.796875 -6.03125 L 5.796875 -6.421875 L 3.859375 -6.421875 L 3.859375 -6.03125 L 4.4375 -5.921875 L 4.515625 -5.796875 L 2.921875 -3.234375 L 1.453125 -5.875 L 1.546875 -5.96875 L 2.09375 -6.03125 L 2.09375 -6.421875 Z M -0.125 -6.421875 "/>
</symbol>
<symbol overflow="visible" id="glyph0-24">
<path style="stroke:none;" d="M 0.28125 0 L 2.296875 0 L 2.296875 -0.390625 L 1.71875 -0.46875 L 1.546875 -0.65625 L 1.546875 -5.4375 L 5.1875 0 L 5.828125 0 L 5.828125 -5.78125 L 6 -5.953125 L 6.5625 -6.03125 L 6.5625 -6.421875 L 4.5625 -6.421875 L 4.5625 -6.03125 L 5.140625 -5.953125 L 5.3125 -5.78125 L 5.3125 -1.28125 L 2.046875 -6.171875 L 2.046875 -6.421875 L 0.25 -6.421875 L 0.25 -6.03125 L 0.859375 -5.96875 L 1.03125 -5.84375 L 1.03125 -0.65625 L 0.859375 -0.46875 L 0.28125 -0.390625 Z M 0.28125 0 "/>
</symbol>
<symbol overflow="visible" id="glyph0-25">
<path style="stroke:none;" d="M 0.21875 2.078125 L 2.46875 2.078125 L 2.46875 1.734375 L 1.859375 1.6875 L 1.6875 1.546875 L 1.6875 -0.0625 C 2.046875 0 2.34375 0.03125 2.578125 0.03125 C 4 0.03125 4.9375 -0.953125 4.9375 -2.453125 C 4.9375 -3.796875 4.15625 -4.6875 3.09375 -4.6875 C 2.65625 -4.6875 2.203125 -4.5 1.6875 -4.125 L 1.6875 -4.640625 L 1.328125 -4.640625 L 0.21875 -4.296875 L 0.21875 -4 L 0.90625 -4 L 0.90625 1.546875 L 0.734375 1.6875 L 0.21875 1.734375 Z M 1.6875 -0.546875 L 1.6875 -3.765625 C 2.0625 -3.984375 2.375 -4.09375 2.703125 -4.09375 C 3.53125 -4.09375 4.09375 -3.4375 4.09375 -2.328125 C 4.09375 -1.15625 3.4375 -0.40625 2.5 -0.40625 C 2.28125 -0.40625 2.015625 -0.453125 1.6875 -0.546875 Z M 1.6875 -0.546875 "/>
</symbol>
<symbol overflow="visible" id="glyph0-26">
<path style="stroke:none;" d="M 1.25 -7.03125 L 0.078125 -6.6875 L 0.078125 -6.390625 L 0.828125 -6.390625 L 0.828125 0 L 2.046875 0 C 3.875 0 4.8125 -0.875 4.8125 -2.515625 C 4.8125 -3.8125 4.046875 -4.6875 2.921875 -4.6875 C 2.5 -4.6875 2.078125 -4.578125 1.609375 -4.359375 L 1.609375 -7.03125 Z M 1.609375 -0.4375 L 1.609375 -4.03125 C 1.9375 -4.125 2.21875 -4.1875 2.453125 -4.1875 C 3.40625 -4.1875 3.953125 -3.53125 3.953125 -2.328125 C 3.953125 -1.015625 3.390625 -0.4375 2.140625 -0.4375 C 2.09375 -0.4375 1.90625 -0.4375 1.609375 -0.4375 Z M 1.609375 -0.4375 "/>
</symbol>
<symbol overflow="visible" id="glyph1-0">
<path style="stroke:none;" d=""/>
</symbol>
<symbol overflow="visible" id="glyph1-1">
<path style="stroke:none;" d="M 1.921875 -6.734375 C 1.640625 -6.734375 1.40625 -6.5 1.40625 -6.21875 C 1.40625 -5.921875 1.640625 -5.703125 1.921875 -5.703125 C 2.203125 -5.703125 2.4375 -5.921875 2.4375 -6.21875 C 2.4375 -6.5 2.203125 -6.734375 1.921875 -6.734375 Z M 1.734375 -4.609375 L 0.3125 -4.296875 L 0.3125 -4.046875 L 1.09375 -3.90625 L 0.53125 -1.0625 C 0.484375 -0.84375 0.46875 -0.671875 0.46875 -0.5625 C 0.46875 -0.140625 0.671875 0.0625 1.078125 0.0625 C 1.4375 0.0625 1.90625 -0.046875 2.421875 -0.265625 L 2.421875 -0.5625 C 2.125 -0.46875 1.90625 -0.421875 1.71875 -0.421875 C 1.421875 -0.421875 1.265625 -0.546875 1.265625 -0.796875 C 1.265625 -0.84375 1.265625 -0.921875 1.296875 -1.03125 L 1.984375 -4.609375 Z M 1.734375 -4.609375 "/>
</symbol>
<symbol overflow="visible" id="glyph1-2">
<path style="stroke:none;" d="M 5.953125 -6.203125 C 5.328125 -6.421875 4.75 -6.53125 4.21875 -6.53125 C 3.34375 -6.53125 2.53125 -6.25 1.875 -5.703125 C 0.9375 -4.9375 0.390625 -3.78125 0.390625 -2.53125 C 0.390625 -0.921875 1.390625 0.109375 2.96875 0.109375 C 3.5625 0.109375 4.203125 0 4.875 -0.21875 L 5.125 -1.734375 L 4.71875 -1.734375 L 4.296875 -0.625 L 4.109375 -0.46875 C 3.828125 -0.375 3.5625 -0.328125 3.296875 -0.328125 C 2.03125 -0.328125 1.296875 -1.09375 1.296875 -2.421875 C 1.296875 -3.671875 1.75 -4.765625 2.5 -5.4375 C 2.96875 -5.859375 3.5625 -6.078125 4.1875 -6.078125 C 4.546875 -6.078125 4.875 -6 5.203125 -5.828125 L 5.28125 -5.65625 L 5.28125 -4.734375 L 5.6875 -4.734375 Z M 5.953125 -6.203125 "/>
</symbol>
<symbol overflow="visible" id="glyph1-3">
<path style="stroke:none;" d="M 1.734375 -4.609375 L 0.3125 -4.296875 L 0.3125 -4.046875 L 1.09375 -3.90625 L 0.3125 0 L 1.125 0 L 1.71875 -3.234375 C 2.296875 -3.765625 2.796875 -4.015625 3.125 -4.015625 C 3.484375 -4.015625 3.640625 -3.828125 3.640625 -3.40625 C 3.640625 -3.296875 3.625 -3.078125 3.5625 -2.796875 L 3.140625 -1.03125 C 3.09375 -0.828125 3.0625 -0.640625 3.0625 -0.515625 C 3.0625 -0.140625 3.296875 0.0625 3.765625 0.0625 C 4.03125 0.0625 4.421875 -0.03125 4.921875 -0.234375 L 4.921875 -0.5 C 4.6875 -0.4375 4.515625 -0.40625 4.390625 -0.40625 C 4.078125 -0.40625 3.890625 -0.578125 3.890625 -0.875 C 3.890625 -1.015625 3.9375 -1.234375 4 -1.515625 L 4.328125 -3 C 4.40625 -3.34375 4.453125 -3.609375 4.453125 -3.84375 C 4.453125 -4.3125 4.15625 -4.609375 3.65625 -4.609375 C 3.140625 -4.609375 2.546875 -4.296875 1.796875 -3.6875 L 1.96875 -4.609375 Z M 1.734375 -4.609375 "/>
</symbol>
<symbol overflow="visible" id="glyph1-4">
<path style="stroke:none;" d="M 4.890625 -6.25 C 4.375 -6.4375 3.828125 -6.515625 3.296875 -6.515625 C 1.859375 -6.515625 0.921875 -5.640625 0.921875 -4.5 C 0.921875 -3.71875 1.546875 -3.34375 2.546875 -2.828125 C 3.171875 -2.515625 3.59375 -2.359375 3.59375 -1.734375 C 3.59375 -0.90625 2.953125 -0.34375 1.953125 -0.34375 C 1.609375 -0.34375 1.265625 -0.4375 0.90625 -0.625 L 0.796875 -0.75 L 0.90625 -1.84375 L 0.40625 -1.84375 L 0.09375 -0.328125 C 0.625 -0.03125 1.21875 0.109375 1.84375 0.109375 C 3.375 0.109375 4.4375 -0.765625 4.4375 -1.9375 C 4.4375 -2.75 3.9375 -3.125 3 -3.5625 C 2.203125 -3.9375 1.734375 -4.109375 1.734375 -4.8125 C 1.734375 -5.515625 2.359375 -6.09375 3.25 -6.09375 C 3.53125 -6.09375 3.8125 -6.03125 4.078125 -5.90625 L 4.203125 -5.734375 L 4.15625 -4.796875 L 4.578125 -4.796875 Z M 4.890625 -6.25 "/>
</symbol>
<symbol overflow="visible" id="glyph1-5">
<path style="stroke:none;" d="M 0.796875 -6.421875 L 0.796875 -6.046875 L 1.421875 -6 L 1.515625 -5.859375 L 0.5 -0.546875 L 0.34375 -0.421875 L -0.265625 -0.359375 L -0.265625 0 L 1.75 0 C 3.0625 0 4.015625 -0.3125 4.765625 -1.0625 C 5.53125 -1.8125 5.953125 -2.859375 5.953125 -3.984375 C 5.953125 -5.5625 4.9375 -6.421875 2.96875 -6.421875 Z M 2.375 -5.96875 L 2.890625 -5.96875 C 4.328125 -5.96875 5.03125 -5.359375 5.03125 -4.078125 C 5.03125 -3.078125 4.6875 -2.09375 4.203125 -1.453125 C 3.703125 -0.796875 2.90625 -0.453125 1.859375 -0.453125 L 1.34375 -0.453125 Z M 2.375 -5.96875 "/>
</symbol>
<symbol overflow="visible" id="glyph1-6">
<path style="stroke:none;" d="M 0.84375 -6.421875 L 0.84375 -6.046875 L 1.46875 -6 L 1.5625 -5.859375 L 0.546875 -0.546875 L 0.390625 -0.421875 L -0.21875 -0.359375 L -0.21875 0 L 2.109375 0 L 2.109375 -0.359375 L 1.484375 -0.421875 L 1.375 -0.546875 L 2.40625 -5.859375 L 2.546875 -6 L 3.1875 -6.046875 L 3.1875 -6.421875 Z M 0.84375 -6.421875 "/>
</symbol>
<symbol overflow="visible" id="glyph1-7">
<path style="stroke:none;" d="M 3.875 -6.515625 C 2.890625 -6.515625 1.9375 -6.03125 1.296875 -5.171875 C 0.703125 -4.40625 0.390625 -3.46875 0.390625 -2.484375 C 0.390625 -0.953125 1.4375 0.109375 2.921875 0.109375 C 3.90625 0.109375 4.859375 -0.375 5.515625 -1.234375 C 6.078125 -1.96875 6.390625 -2.9375 6.390625 -4.015625 C 6.390625 -4.859375 6.03125 -5.609375 5.375 -6.078125 C 4.984375 -6.359375 4.46875 -6.515625 3.875 -6.515625 Z M 5.453125 -4 C 5.453125 -3.0625 5.15625 -2.109375 4.703125 -1.421875 C 4.21875 -0.703125 3.625 -0.34375 2.96875 -0.34375 C 1.984375 -0.34375 1.3125 -1.140625 1.3125 -2.421875 C 1.3125 -3.359375 1.59375 -4.3125 2.0625 -5 C 2.546875 -5.71875 3.15625 -6.078125 3.8125 -6.078125 C 4.796875 -6.078125 5.453125 -5.3125 5.453125 -4 Z M 5.453125 -4 "/>
</symbol>
<symbol overflow="visible" id="glyph1-8">
<path style="stroke:none;" d="M 0.6875 -6.421875 L 0.40625 -4.984375 L 0.9375 -4.984375 L 1.25 -5.875 L 1.40625 -6.03125 L 2.75 -6.03125 L 1.734375 -0.546875 L 1.578125 -0.421875 L 0.96875 -0.359375 L 0.96875 0 L 3.296875 0 L 3.296875 -0.359375 L 2.671875 -0.421875 L 2.546875 -0.546875 L 3.609375 -6.03125 L 4.96875 -6.03125 L 5.0625 -5.875 L 5.03125 -4.984375 L 5.546875 -4.984375 L 5.828125 -6.421875 Z M 0.6875 -6.421875 "/>
</symbol>
<symbol overflow="visible" id="glyph2-0">
<path style="stroke:none;" d=""/>
</symbol>
<symbol overflow="visible" id="glyph2-1">
<path style="stroke:none;" d="M 1.203125 -3.21875 L 0.21875 -3 L 0.21875 -2.828125 L 0.765625 -2.734375 L 0.21875 0 L 0.78125 0 L 1.203125 -2.265625 C 1.609375 -2.640625 1.953125 -2.8125 2.1875 -2.8125 C 2.4375 -2.8125 2.546875 -2.6875 2.546875 -2.390625 C 2.546875 -2.296875 2.53125 -2.15625 2.484375 -1.953125 L 2.203125 -0.71875 C 2.171875 -0.578125 2.140625 -0.453125 2.140625 -0.359375 C 2.140625 -0.09375 2.3125 0.046875 2.640625 0.046875 C 2.828125 0.046875 3.09375 -0.03125 3.4375 -0.15625 L 3.4375 -0.34375 C 3.28125 -0.3125 3.15625 -0.28125 3.0625 -0.28125 C 2.84375 -0.28125 2.71875 -0.40625 2.71875 -0.609375 C 2.71875 -0.71875 2.75 -0.859375 2.796875 -1.0625 L 3.015625 -2.09375 C 3.078125 -2.328125 3.109375 -2.515625 3.109375 -2.6875 C 3.109375 -3.015625 2.90625 -3.21875 2.546875 -3.21875 C 2.203125 -3.21875 1.78125 -3 1.25 -2.578125 L 1.375 -3.21875 Z M 1.203125 -3.21875 "/>
</symbol>
<symbol overflow="visible" id="glyph3-0">
<path style="stroke:none;" d=""/>
</symbol>
<symbol overflow="visible" id="glyph3-1">
<path style="stroke:none;" d="M 0.53125 -4.875 L 5.65625 -2.75 L 0.53125 -0.625 L 0.53125 -0.015625 L 6.6875 -2.5625 L 6.6875 -2.9375 L 0.53125 -5.5 Z M 0.53125 -4.875 "/>
</symbol>
<symbol overflow="visible" id="glyph3-2">
<path style="stroke:none;" d="M 0.53125 -2.28125 C 0.484375 -2.09375 0.484375 -1.921875 0.484375 -1.75 C 0.484375 -0.65625 1.203125 0.09375 2.375 0.09375 C 3.734375 0.09375 4.90625 -0.921875 5.1875 -2.328125 C 5.21875 -2.453125 5.21875 -2.59375 5.21875 -2.734375 C 5.21875 -3.25 5.015625 -3.734375 4.640625 -4.046875 L 6.390625 -3.78125 L 6.5625 -4.640625 L 3.296875 -4.640625 C 1.9375 -4.640625 0.796875 -3.65625 0.53125 -2.28125 Z M 3.109375 -4.28125 C 3.9375 -4.28125 4.421875 -3.734375 4.421875 -2.859375 C 4.421875 -2.703125 4.40625 -2.515625 4.375 -2.328125 C 4.140625 -1.109375 3.421875 -0.3125 2.5625 -0.3125 C 1.765625 -0.3125 1.296875 -0.875 1.296875 -1.78125 C 1.296875 -1.96875 1.3125 -2.171875 1.359375 -2.390625 C 1.578125 -3.53125 2.265625 -4.28125 3.109375 -4.28125 Z M 3.109375 -4.28125 "/>
</symbol>
<symbol overflow="visible" id="glyph4-0">
<path style="stroke:none;" d=""/>
</symbol>
<symbol overflow="visible" id="glyph4-1">
<path style="stroke:none;" d="M 1.34375 -0.75 C 3.46875 -2.4375 4.625 -3.515625 4.625 -4.71875 C 4.625 -5.796875 3.859375 -6.53125 2.625 -6.53125 C 1.4375 -6.53125 0.609375 -5.859375 0.609375 -5.1875 C 0.609375 -4.859375 0.796875 -4.640625 1.140625 -4.640625 C 1.296875 -4.640625 1.4375 -4.6875 1.5625 -4.796875 L 1.5625 -5.8125 C 1.859375 -5.96875 2.125 -6.046875 2.421875 -6.046875 C 3.21875 -6.046875 3.6875 -5.515625 3.6875 -4.59375 C 3.6875 -3.34375 2.5 -2.296875 0.40625 -0.609375 L 0.40625 0 L 4.828125 0 L 4.828125 -1.5625 L 4.40625 -1.5625 L 4.234375 -0.75 Z M 1.34375 -0.75 "/>
</symbol>
<symbol overflow="visible" id="glyph5-0">
<path style="stroke:none;" d=""/>
</symbol>
<symbol overflow="visible" id="glyph5-1">
<path style="stroke:none;" d="M 0.671875 -4.484375 L 0.671875 -2.28125 C 0.828125 -2.3125 1.015625 -2.328125 1.265625 -2.328125 C 2.1875 -2.328125 2.65625 -2 2.65625 -1.3125 C 2.65625 -0.703125 2.234375 -0.25 1.59375 -0.25 C 1.453125 -0.25 1.296875 -0.28125 1.15625 -0.328125 L 0.875 -0.90625 C 0.8125 -0.921875 0.765625 -0.921875 0.71875 -0.921875 C 0.5 -0.921875 0.328125 -0.78125 0.328125 -0.5625 C 0.328125 -0.25 0.796875 0.0625 1.484375 0.0625 C 2.578125 0.0625 3.265625 -0.59375 3.265625 -1.453125 C 3.265625 -2.21875 2.703125 -2.734375 1.8125 -2.734375 C 1.59375 -2.734375 1.34375 -2.703125 1.09375 -2.625 L 1.09375 -3.96875 L 3.0625 -3.96875 L 3.0625 -4.484375 Z M 0.671875 -4.484375 "/>
</symbol>
<symbol overflow="visible" id="glyph5-2">
<path style="stroke:none;" d="M 0.9375 -0.53125 C 2.421875 -1.703125 3.234375 -2.46875 3.234375 -3.296875 C 3.234375 -4.0625 2.703125 -4.5625 1.84375 -4.5625 C 1.015625 -4.5625 0.421875 -4.09375 0.421875 -3.625 C 0.421875 -3.390625 0.5625 -3.25 0.796875 -3.25 C 0.90625 -3.25 1 -3.28125 1.09375 -3.34375 L 1.09375 -4.0625 C 1.296875 -4.171875 1.484375 -4.21875 1.6875 -4.21875 C 2.25 -4.21875 2.578125 -3.859375 2.578125 -3.21875 C 2.578125 -2.34375 1.75 -1.609375 0.28125 -0.421875 L 0.28125 0 L 3.375 0 L 3.375 -1.09375 L 3.078125 -1.09375 L 2.953125 -0.53125 Z M 0.9375 -0.53125 "/>
</symbol>
<symbol overflow="visible" id="glyph5-3">
<path style="stroke:none;" d="M 0.9375 -4.921875 L 0.125 -4.6875 L 0.125 -4.46875 L 0.640625 -4.46875 L 0.640625 -0.375 L 0.53125 -0.28125 L 0.171875 -0.234375 L 0.171875 0 L 1.625 0 L 1.625 -0.234375 L 1.3125 -0.28125 L 1.203125 -0.375 L 1.203125 -2.625 C 1.484375 -2.765625 1.734375 -2.84375 1.953125 -2.84375 C 2.4375 -2.84375 2.625 -2.640625 2.625 -2.15625 L 2.625 -0.375 L 2.5 -0.28125 L 2.1875 -0.234375 L 2.1875 0 L 3.65625 0 L 3.65625 -0.234375 L 3.296875 -0.28125 L 3.171875 -0.375 L 3.171875 -2.265625 C 3.171875 -2.9375 2.859375 -3.28125 2.28125 -3.28125 C 2 -3.28125 1.640625 -3.125 1.203125 -2.875 L 1.203125 -4.921875 Z M 0.9375 -4.921875 "/>
</symbol>
<symbol overflow="visible" id="glyph5-4">
<path style="stroke:none;" d="M 2.5625 -4.46875 L 2.5625 -3.21875 C 2.359375 -3.265625 2.15625 -3.296875 1.96875 -3.296875 C 0.953125 -3.296875 0.234375 -2.578125 0.234375 -1.5 C 0.234375 -0.5625 0.796875 0.0625 1.53125 0.0625 C 1.90625 0.0625 2.21875 -0.078125 2.5625 -0.34375 L 2.5625 0 L 3.546875 0 L 3.546875 -0.234375 L 3.234375 -0.28125 L 3.109375 -0.375 L 3.109375 -4.921875 L 2.859375 -4.921875 L 2.046875 -4.6875 L 2.046875 -4.46875 Z M 2.5625 -0.59375 C 2.3125 -0.4375 2.078125 -0.359375 1.828125 -0.359375 C 1.234375 -0.359375 0.828125 -0.828125 0.828125 -1.625 C 0.828125 -2.453125 1.296875 -3 1.96875 -3 C 2.140625 -3 2.328125 -2.953125 2.5625 -2.890625 Z M 2.5625 -0.59375 "/>
</symbol>
<symbol overflow="visible" id="glyph5-5">
<path style="stroke:none;" d="M -0.03125 -3.21875 L -0.03125 -2.96875 L 0.375 -2.921875 L 1.453125 0 L 1.828125 0 L 3 -2.921875 L 3.390625 -2.96875 L 3.390625 -3.21875 L 2.203125 -3.21875 L 2.203125 -2.96875 L 2.5625 -2.9375 L 2.625 -2.828125 L 1.765625 -0.65625 L 0.984375 -2.828125 L 1.0625 -2.9375 L 1.421875 -2.96875 L 1.421875 -3.21875 Z M -0.03125 -3.21875 "/>
</symbol>
<symbol overflow="visible" id="glyph5-6">
<path style="stroke:none;" d="M 2.296875 -3.140625 C 2.078125 -3.234375 1.8125 -3.28125 1.515625 -3.28125 C 0.75 -3.28125 0.328125 -2.9375 0.328125 -2.34375 C 0.328125 -1.90625 0.625 -1.6875 1.203125 -1.4375 C 1.640625 -1.234375 1.875 -1.109375 1.875 -0.765625 C 1.875 -0.453125 1.640625 -0.21875 1.25 -0.21875 C 1.0625 -0.21875 0.875 -0.28125 0.6875 -0.375 L 0.609375 -0.953125 L 0.28125 -0.953125 L 0.28125 -0.078125 C 0.515625 0 0.8125 0.0625 1.15625 0.0625 C 1.9375 0.0625 2.40625 -0.328125 2.40625 -0.9375 C 2.40625 -1.1875 2.3125 -1.390625 2.140625 -1.515625 C 1.921875 -1.703125 1.671875 -1.796875 1.4375 -1.90625 C 1.0625 -2.09375 0.875 -2.234375 0.875 -2.515625 C 0.875 -2.8125 1.0625 -3 1.421875 -3 C 1.578125 -3 1.75 -2.953125 1.921875 -2.859375 L 1.96875 -2.375 L 2.296875 -2.375 Z M 2.296875 -3.140625 "/>
</symbol>
<symbol overflow="visible" id="glyph5-7">
<path style="stroke:none;" d="M 1.03125 -4.734375 C 0.8125 -4.734375 0.640625 -4.5625 0.640625 -4.34375 C 0.640625 -4.140625 0.8125 -3.96875 1.03125 -3.96875 C 1.25 -3.96875 1.421875 -4.140625 1.421875 -4.34375 C 1.421875 -4.5625 1.25 -4.734375 1.03125 -4.734375 Z M 1 -3.25 L 0.234375 -3.015625 L 0.234375 -2.796875 L 0.703125 -2.796875 L 0.703125 -0.375 L 0.59375 -0.28125 L 0.234375 -0.234375 L 0.234375 0 L 1.734375 0 L 1.734375 -0.234375 L 1.375 -0.28125 L 1.25 -0.375 L 1.25 -3.25 Z M 1 -3.25 "/>
</symbol>
<symbol overflow="visible" id="glyph5-8">
<path style="stroke:none;" d="M 2.078125 -4.5625 L 0.625 -4.140625 L 0.625 -3.859375 L 1.671875 -4.046875 L 1.671875 -0.4375 L 1.59375 -0.328125 L 0.828125 -0.28125 L 0.828125 0 L 3.0625 0 L 3.0625 -0.28125 L 2.34375 -0.3125 L 2.265625 -0.421875 L 2.265625 -4.5625 Z M 2.078125 -4.5625 "/>
</symbol>
<symbol overflow="visible" id="glyph6-0">
<path style="stroke:none;" d=""/>
</symbol>
<symbol overflow="visible" id="glyph6-1">
<path style="stroke:none;" d="M 4.03125 -0.578125 L 4.03125 -7.03125 L 3.46875 -7.03125 L 3.46875 -0.578125 L 0.53125 -0.578125 L 0.53125 0 L 6.96875 0 L 6.96875 -0.578125 Z M 4.03125 -0.578125 "/>
</symbol>
<symbol overflow="visible" id="glyph7-0">
<path style="stroke:none;" d=""/>
</symbol>
<symbol overflow="visible" id="glyph7-1">
<path style="stroke:none;" d="M 4.453125 -2.3125 C 3.875 -2.96875 3.203125 -3.578125 2.34375 -3.578125 C 1.28125 -3.578125 0.75 -2.75 0.75 -1.921875 C 0.75 -1.109375 1.28125 -0.28125 2.34375 -0.28125 C 3.171875 -0.28125 3.8125 -0.875 4.34375 -1.53125 C 4.921875 -0.875 5.59375 -0.28125 6.453125 -0.28125 C 7.515625 -0.28125 8.046875 -1.109375 8.046875 -1.921875 C 8.046875 -2.75 7.515625 -3.578125 6.453125 -3.578125 C 5.625 -3.578125 4.984375 -2.96875 4.453125 -2.3125 Z M 4.71875 -2.015625 C 5.171875 -2.59375 5.71875 -3.171875 6.453125 -3.171875 C 7.09375 -3.171875 7.59375 -2.640625 7.59375 -2.015625 C 7.59375 -2 7.59375 -1.953125 7.59375 -1.921875 C 7.546875 -1.34375 7.046875 -0.890625 6.453125 -0.890625 C 5.71875 -0.890625 5.1875 -1.453125 4.71875 -2.015625 Z M 4.078125 -1.84375 C 3.609375 -1.25 3.078125 -0.6875 2.34375 -0.6875 C 1.703125 -0.6875 1.1875 -1.203125 1.1875 -1.828125 C 1.1875 -1.859375 1.203125 -1.890625 1.203125 -1.921875 C 1.25 -2.515625 1.75 -2.96875 2.34375 -2.96875 C 3.0625 -2.96875 3.609375 -2.40625 4.078125 -1.84375 Z M 4.078125 -1.84375 "/>
</symbol>
</g>
<clipPath id="clip1">
  <path d="M 332 263 L 362 263 L 362 291.835938 L 332 291.835938 Z M 332 263 "/>
</clipPath>
<clipPath id="clip2">
  <path d="M 327 257 L 367 257 L 367 291.835938 L 327 291.835938 Z M 327 257 "/>
</clipPath>
<clipPath id="clip3">
  <path d="M 371 263 L 400 263 L 400 291.835938 L 371 291.835938 Z M 371 263 "/>
</clipPath>
<clipPath id="clip4">
  <path d="M 365 257 L 406 257 L 406 291.835938 L 365 291.835938 Z M 365 257 "/>
</clipPath>
<clipPath id="clip5">
  <path d="M 403 157 L 432.398438 157 L 432.398438 186 L 403 186 Z M 403 157 "/>
</clipPath>
<clipPath id="clip6">
  <path d="M 398 151 L 432.398438 151 L 432.398438 192 L 398 192 Z M 398 151 "/>
</clipPath>
</defs>
<g id="surface1">
<path style="fill-rule:nonzero;fill:rgb(100%,62.35199%,60.783386%);fill-opacity:1;stroke-width:0.3985;stroke-linecap:butt;stroke-linejoin:miter;stroke:rgb(0%,0%,0%);stroke-opacity:1;stroke-miterlimit:10;" d="M 23.827844 0.0015625 C 23.827844 13.157812 13.159875 23.825781 -0.00028125 23.825781 C -13.160438 23.825781 -23.828406 13.157812 -23.828406 0.0015625 C -23.828406 -13.158594 -13.160438 -23.826563 -0.00028125 -23.826563 C 13.159875 -23.826563 23.827844 -13.158594 23.827844 0.0015625 Z M 23.827844 0.0015625 " transform="matrix(1,0,0,-1,87.137,24.025)"/>
<g style="fill:rgb(0%,0%,0%);fill-opacity:1;">
  <use xlink:href="#glyph0-1" x="68.267" y="26.416"/>
  <use xlink:href="#glyph0-2" x="76.549597" y="26.416"/>
  <use xlink:href="#glyph0-3" x="81.704701" y="26.416"/>
</g>
<g style="fill:rgb(0%,0%,0%);fill-opacity:1;">
  <use xlink:href="#glyph0-4" x="84.306163" y="26.416"/>
  <use xlink:href="#glyph0-5" x="89.002186" y="26.416"/>
  <use xlink:href="#glyph0-6" x="93.267819" y="26.416"/>
  <use xlink:href="#glyph0-3" x="98.709849" y="26.416"/>
</g>
<g style="fill:rgb(0%,0%,0%);fill-opacity:1;">
  <use xlink:href="#glyph0-4" x="101.311311" y="26.416"/>
</g>
<path style="fill-rule:nonzero;fill:rgb(63.136292%,78.822327%,95.684814%);fill-opacity:1;stroke-width:0.3985;stroke-linecap:butt;stroke-linejoin:miter;stroke:rgb(0%,0%,0%);stroke-opacity:1;stroke-miterlimit:10;" d="M -24.4495 -61.076563 L 24.448937 -61.076563 L 24.448937 -38.396875 L -24.4495 -38.396875 Z M -24.4495 -61.076563 " transform="matrix(1,0,0,-1,87.137,24.025)"/>
<g style="fill:rgb(0%,0%,0%);fill-opacity:1;">
  <use xlink:href="#glyph0-7" x="71.734" y="76.153"/>
  <use xlink:href="#glyph0-8" x="76.707384" y="76.153"/>
  <use xlink:href="#glyph0-9" x="79.38536" y="76.153"/>
</g>
<g style="fill:rgb(0%,0%,0%);fill-opacity:1;">
  <use xlink:href="#glyph0-4" x="84.693491" y="76.153"/>
  <use xlink:href="#glyph0-10" x="89.389513" y="76.153"/>
  <use xlink:href="#glyph0-11" x="94.238563" y="76.153"/>
  <use xlink:href="#glyph0-12" x="97.892087" y="76.153"/>
</g>
<path style="fill-rule:nonzero;fill:rgb(63.136292%,78.822327%,95.684814%);fill-opacity:1;stroke-width:0.3985;stroke-linecap:butt;stroke-linejoin:miter;stroke:rgb(0%,0%,0%);stroke-opacity:1;stroke-miterlimit:10;" d="M -68.0745 -98.326563 L -39.019813 -98.326563 L -39.019813 -75.646875 L -68.0745 -75.646875 Z M -68.0745 -98.326563 " transform="matrix(1,0,0,-1,87.137,24.025)"/>
<g style="fill:rgb(0%,0%,0%);fill-opacity:1;">
  <use xlink:href="#glyph1-1" x="29.776" y="113.402"/>
</g>
<g style="fill:rgb(0%,0%,0%);fill-opacity:1;">
  <use xlink:href="#glyph0-12" x="32.999" y="113.402"/>
</g>
<path style="fill-rule:nonzero;fill:rgb(63.136292%,78.822327%,95.684814%);fill-opacity:1;stroke-width:0.3985;stroke-linecap:butt;stroke-linejoin:miter;stroke:rgb(0%,0%,0%);stroke-opacity:1;stroke-miterlimit:10;" d="M 27.679406 -117.889063 L 76.577844 -117.889063 L 76.577844 -75.646875 L 27.679406 -75.646875 Z M 27.679406 -117.889063 " transform="matrix(1,0,0,-1,87.137,24.025)"/>
<g style="fill:rgb(0%,0%,0%);fill-opacity:1;">
  <use xlink:href="#glyph0-13" x="124.282" y="111.229"/>
  <use xlink:href="#glyph0-14" x="129.991827" y="111.229"/>
</g>
<g style="fill:rgb(0%,0%,0%);fill-opacity:1;">
  <use xlink:href="#glyph0-2" x="137.098028" y="111.229"/>
</g>
<g style="fill:rgb(0%,0%,0%);fill-opacity:1;">
  <use xlink:href="#glyph0-2" x="145.43801" y="111.229"/>
  <use xlink:href="#glyph0-11" x="150.593114" y="111.229"/>
</g>
<g style="fill:rgb(0%,0%,0%);fill-opacity:1;">
  <use xlink:href="#glyph0-15" x="120.486" y="123.184"/>
</g>
<g style="fill:rgb(0%,0%,0%);fill-opacity:1;">
  <use xlink:href="#glyph0-2" x="128.290387" y="123.184"/>
  <use xlink:href="#glyph0-11" x="133.445491" y="123.184"/>
  <use xlink:href="#glyph0-4" x="137.099015" y="123.184"/>
</g>
<g style="fill:rgb(0%,0%,0%);fill-opacity:1;">
  <use xlink:href="#glyph1-2" x="145.222" y="123.184"/>
</g>
<g style="fill:rgb(0%,0%,0%);fill-opacity:1;">
  <use xlink:href="#glyph2-1" x="151.166" y="125.345"/>
</g>
<g style="fill:rgb(0%,0%,0%);fill-opacity:1;">
  <use xlink:href="#glyph0-16" x="155.387" y="123.184"/>
</g>
<g style="fill:rgb(0%,0%,0%);fill-opacity:1;">
  <use xlink:href="#glyph1-3" x="124.974" y="135.139"/>
</g>
<g style="fill:rgb(0%,0%,0%);fill-opacity:1;">
  <use xlink:href="#glyph3-1" x="133.298" y="135.139"/>
</g>
<g style="fill:rgb(0%,0%,0%);fill-opacity:1;">
  <use xlink:href="#glyph4-1" x="143.831" y="135.139"/>
</g>
<g style="fill:rgb(0%,0%,0%);fill-opacity:1;">
  <use xlink:href="#glyph0-12" x="149.148" y="135.139"/>
</g>
<path style="fill-rule:nonzero;fill:rgb(63.136292%,78.822327%,95.684814%);fill-opacity:1;stroke-width:0.3985;stroke-linecap:butt;stroke-linejoin:miter;stroke:rgb(0%,0%,0%);stroke-opacity:1;stroke-miterlimit:10;" d="M 3.898156 -155.139063 L 32.952844 -155.139063 L 32.952844 -132.459375 L 3.898156 -132.459375 Z M 3.898156 -155.139063 " transform="matrix(1,0,0,-1,87.137,24.025)"/>
<g style="fill:rgb(0%,0%,0%);fill-opacity:1;">
  <use xlink:href="#glyph1-1" x="101.746" y="170.215"/>
</g>
<g style="fill:rgb(0%,0%,0%);fill-opacity:1;">
  <use xlink:href="#glyph0-12" x="104.97" y="170.215"/>
</g>
<path style="fill-rule:nonzero;fill:rgb(63.136292%,78.822327%,95.684814%);fill-opacity:1;stroke-width:0.3985;stroke-linecap:butt;stroke-linejoin:miter;stroke:rgb(0%,0%,0%);stroke-opacity:1;stroke-miterlimit:10;" d="M -19.883094 -192.389063 L 9.171594 -192.389063 L 9.171594 -169.709375 L -19.883094 -169.709375 Z M -19.883094 -192.389063 " transform="matrix(1,0,0,-1,87.137,24.025)"/>
<g style="fill:rgb(0%,0%,0%);fill-opacity:1;">
  <use xlink:href="#glyph1-2" x="74.577" y="207.463"/>
</g>
<g style="fill:rgb(0%,0%,0%);fill-opacity:1;">
  <use xlink:href="#glyph5-1" x="80.354" y="209.625"/>
</g>
<g style="fill:rgb(0%,0%,0%);fill-opacity:1;">
  <use xlink:href="#glyph0-12" x="84.575" y="207.463"/>
</g>
<path style="fill-rule:nonzero;fill:rgb(63.136292%,78.822327%,95.684814%);fill-opacity:1;stroke-width:0.3985;stroke-linecap:butt;stroke-linejoin:miter;stroke:rgb(0%,0%,0%);stroke-opacity:1;stroke-miterlimit:10;" d="M 219.816125 -48.389063 L 248.870812 -48.389063 L 248.870812 -25.709375 L 219.816125 -25.709375 Z M 219.816125 -48.389063 " transform="matrix(1,0,0,-1,87.137,24.025)"/>
<g style="fill:rgb(0%,0%,0%);fill-opacity:1;">
  <use xlink:href="#glyph1-2" x="314.192" y="63.466"/>
</g>
<g style="fill:rgb(0%,0%,0%);fill-opacity:1;">
  <use xlink:href="#glyph2-1" x="320.136" y="65.627"/>
</g>
<g style="fill:rgb(0%,0%,0%);fill-opacity:1;">
  <use xlink:href="#glyph0-12" x="324.357" y="63.466"/>
</g>
<path style="fill-rule:nonzero;fill:rgb(63.136292%,78.822327%,95.684814%);fill-opacity:1;stroke-width:0.3985;stroke-linecap:butt;stroke-linejoin:miter;stroke:rgb(0%,0%,0%);stroke-opacity:1;stroke-miterlimit:10;" d="M 143.593469 -117.158594 L 206.663781 -117.158594 L 206.663781 -62.959375 L 143.593469 -62.959375 Z M 143.593469 -117.158594 " transform="matrix(1,0,0,-1,87.137,24.025)"/>
<g style="fill:rgb(0%,0%,0%);fill-opacity:1;">
  <use xlink:href="#glyph0-17" x="243.039" y="98.542"/>
</g>
<g style="fill:rgb(0%,0%,0%);fill-opacity:1;">
  <use xlink:href="#glyph0-4" x="248.442773" y="98.542"/>
  <use xlink:href="#glyph0-3" x="253.138795" y="98.542"/>
</g>
<g style="fill:rgb(0%,0%,0%);fill-opacity:1;">
  <use xlink:href="#glyph0-4" x="255.740258" y="98.542"/>
  <use xlink:href="#glyph0-5" x="260.43628" y="98.542"/>
  <use xlink:href="#glyph0-18" x="264.701913" y="98.542"/>
</g>
<g style="fill:rgb(0%,0%,0%);fill-opacity:1;">
  <use xlink:href="#glyph1-2" x="271.324" y="98.542"/>
</g>
<g style="fill:rgb(0%,0%,0%);fill-opacity:1;">
  <use xlink:href="#glyph2-1" x="277.268" y="100.703"/>
</g>
<g style="fill:rgb(0%,0%,0%);fill-opacity:1;">
  <use xlink:href="#glyph0-14" x="236.257" y="110.497"/>
  <use xlink:href="#glyph0-8" x="243.630998" y="110.497"/>
  <use xlink:href="#glyph0-18" x="246.308974" y="110.497"/>
  <use xlink:href="#glyph0-19" x="249.503417" y="110.497"/>
</g>
<g style="fill:rgb(0%,0%,0%);fill-opacity:1;">
  <use xlink:href="#glyph0-19" x="258.082504" y="110.497"/>
  <use xlink:href="#glyph0-8" x="263.476713" y="110.497"/>
  <use xlink:href="#glyph0-20" x="266.154689" y="110.497"/>
  <use xlink:href="#glyph0-19" x="271.156766" y="110.497"/>
  <use xlink:href="#glyph0-4" x="276.550975" y="110.497"/>
  <use xlink:href="#glyph0-21" x="281.246997" y="110.497"/>
  <use xlink:href="#glyph0-18" x="285.072677" y="110.497"/>
</g>
<g style="fill:rgb(0%,0%,0%);fill-opacity:1;">
  <use xlink:href="#glyph1-3" x="242.401" y="122.452"/>
</g>
<g style="fill:rgb(0%,0%,0%);fill-opacity:1;">
  <use xlink:href="#glyph0-22" x="247.719" y="122.452"/>
</g>
<g style="fill:rgb(0%,0%,0%);fill-opacity:1;">
  <use xlink:href="#glyph0-18" x="253.954858" y="122.452"/>
  <use xlink:href="#glyph0-19" x="257.149301" y="122.452"/>
  <use xlink:href="#glyph0-4" x="262.54351" y="122.452"/>
  <use xlink:href="#glyph0-9" x="267.239532" y="122.452"/>
</g>
<g style="fill:rgb(0%,0%,0%);fill-opacity:1;">
  <use xlink:href="#glyph0-8" x="275.866441" y="122.452"/>
  <use xlink:href="#glyph0-21" x="278.544417" y="122.452"/>
</g>
<g style="fill:rgb(0%,0%,0%);fill-opacity:1;">
  <use xlink:href="#glyph1-3" x="240.129" y="134.407"/>
</g>
<g style="fill:rgb(0%,0%,0%);fill-opacity:1;">
  <use xlink:href="#glyph1-2" x="245.6858" y="134.407"/>
</g>
<g style="fill:rgb(0%,0%,0%);fill-opacity:1;">
  <use xlink:href="#glyph5-2" x="251.463" y="136.569"/>
</g>
<g style="fill:rgb(0%,0%,0%);fill-opacity:1;">
  <use xlink:href="#glyph6-1" x="258.871" y="134.407"/>
</g>
<g style="fill:rgb(0%,0%,0%);fill-opacity:1;">
  <use xlink:href="#glyph1-2" x="269.825" y="134.407"/>
</g>
<g style="fill:rgb(0%,0%,0%);fill-opacity:1;">
  <use xlink:href="#glyph2-1" x="275.769" y="136.569"/>
</g>
<g style="fill:rgb(0%,0%,0%);fill-opacity:1;">
  <use xlink:href="#glyph0-12" x="279.989" y="134.407"/>
</g>
<path style="fill-rule:nonzero;fill:rgb(63.136292%,78.822327%,95.684814%);fill-opacity:1;stroke-width:0.3985;stroke-linecap:butt;stroke-linejoin:miter;stroke:rgb(0%,0%,0%);stroke-opacity:1;stroke-miterlimit:10;" d="M 104.222375 -154.408594 L 133.273156 -154.408594 L 133.273156 -131.728906 L 104.222375 -131.728906 Z M 104.222375 -154.408594 " transform="matrix(1,0,0,-1,87.137,24.025)"/>
<g style="fill:rgb(0%,0%,0%);fill-opacity:1;">
  <use xlink:href="#glyph3-2" x="197.86" y="169.483"/>
</g>
<g style="fill:rgb(0%,0%,0%);fill-opacity:1;">
  <use xlink:href="#glyph5-3" x="204.985" y="171.644"/>
</g>
<g style="fill:rgb(0%,0%,0%);fill-opacity:1;">
  <use xlink:href="#glyph0-12" x="209.259" y="169.483"/>
</g>
<path style="fill-rule:nonzero;fill:rgb(63.136292%,78.822327%,95.684814%);fill-opacity:1;stroke-width:0.3985;stroke-linecap:butt;stroke-linejoin:miter;stroke:rgb(0%,0%,0%);stroke-opacity:1;stroke-miterlimit:10;" d="M 128.003625 -191.654688 L 157.058312 -191.654688 L 157.058312 -168.978906 L 128.003625 -168.978906 Z M 128.003625 -191.654688 " transform="matrix(1,0,0,-1,87.137,24.025)"/>
<g style="fill:rgb(0%,0%,0%);fill-opacity:1;">
  <use xlink:href="#glyph1-3" x="219.099" y="206.732"/>
</g>
<g style="fill:rgb(0%,0%,0%);fill-opacity:1;">
  <use xlink:href="#glyph3-2" x="224.417" y="206.732"/>
</g>
<g style="fill:rgb(0%,0%,0%);fill-opacity:1;">
  <use xlink:href="#glyph5-4" x="231.542" y="208.893"/>
</g>
<g style="fill:rgb(0%,0%,0%);fill-opacity:1;">
  <use xlink:href="#glyph0-12" x="235.823" y="206.732"/>
</g>
<path style="fill-rule:nonzero;fill:rgb(63.136292%,78.822327%,95.684814%);fill-opacity:1;stroke-width:0.3985;stroke-linecap:butt;stroke-linejoin:miter;stroke:rgb(0%,0%,0%);stroke-opacity:1;stroke-miterlimit:10;" d="M 216.984094 -154.408594 L 246.034875 -154.408594 L 246.034875 -131.728906 L 216.984094 -131.728906 Z M 216.984094 -154.408594 " transform="matrix(1,0,0,-1,87.137,24.025)"/>
<g style="fill:rgb(0%,0%,0%);fill-opacity:1;">
  <use xlink:href="#glyph3-2" x="310.621" y="169.483"/>
</g>
<g style="fill:rgb(0%,0%,0%);fill-opacity:1;">
  <use xlink:href="#glyph5-3" x="317.746" y="171.644"/>
</g>
<g style="fill:rgb(0%,0%,0%);fill-opacity:1;">
  <use xlink:href="#glyph0-12" x="322.02" y="169.483"/>
</g>
<path style="fill-rule:nonzero;fill:rgb(63.136292%,78.822327%,95.684814%);fill-opacity:1;stroke-width:0.3985;stroke-linecap:butt;stroke-linejoin:miter;stroke:rgb(0%,0%,0%);stroke-opacity:1;stroke-miterlimit:10;" d="M 240.765344 -191.654688 L 269.820031 -191.654688 L 269.820031 -168.978906 L 240.765344 -168.978906 Z M 240.765344 -191.654688 " transform="matrix(1,0,0,-1,87.137,24.025)"/>
<g style="fill:rgb(0%,0%,0%);fill-opacity:1;">
  <use xlink:href="#glyph1-3" x="332.098" y="206.732"/>
</g>
<g style="fill:rgb(0%,0%,0%);fill-opacity:1;">
  <use xlink:href="#glyph3-2" x="337.415" y="206.732"/>
</g>
<g style="fill:rgb(0%,0%,0%);fill-opacity:1;">
  <use xlink:href="#glyph5-5" x="344.541" y="208.893"/>
</g>
<g style="fill:rgb(0%,0%,0%);fill-opacity:1;">
  <use xlink:href="#glyph0-12" x="348.346" y="206.732"/>
</g>
<path style="fill-rule:nonzero;fill:rgb(63.136292%,78.822327%,95.684814%);fill-opacity:1;stroke-width:0.3985;stroke-linecap:butt;stroke-linejoin:miter;stroke:rgb(0%,0%,0%);stroke-opacity:1;stroke-miterlimit:10;" d="M 264.546594 -228.904688 L 293.601281 -228.904688 L 293.601281 -206.228906 L 264.546594 -206.228906 Z M 264.546594 -228.904688 " transform="matrix(1,0,0,-1,87.137,24.025)"/>
<g style="fill:rgb(0%,0%,0%);fill-opacity:1;">
  <use xlink:href="#glyph1-4" x="357.261" y="243.981"/>
</g>
<g style="fill:rgb(0%,0%,0%);fill-opacity:1;">
  <use xlink:href="#glyph5-2" x="362.397" y="246.142"/>
</g>
<g style="fill:rgb(0%,0%,0%);fill-opacity:1;">
  <use xlink:href="#glyph2-1" x="366.287" y="246.142"/>
</g>
<g style="fill:rgb(0%,0%,0%);fill-opacity:1;">
  <use xlink:href="#glyph0-12" x="370.507" y="243.981"/>
</g>
<path style="fill-rule:nonzero;fill:rgb(63.136292%,78.822327%,95.684814%);fill-opacity:1;stroke-width:0.3985;stroke-linecap:butt;stroke-linejoin:miter;stroke:rgb(0%,0%,0%);stroke-opacity:1;stroke-miterlimit:10;" d="M 273.363 -85.639063 L 302.417687 -85.639063 L 302.417687 -62.959375 L 273.363 -62.959375 Z M 273.363 -85.639063 " transform="matrix(1,0,0,-1,87.137,24.025)"/>
<g style="fill:rgb(0%,0%,0%);fill-opacity:1;">
  <use xlink:href="#glyph3-2" x="367.001" y="100.715"/>
</g>
<g style="fill:rgb(0%,0%,0%);fill-opacity:1;">
  <use xlink:href="#glyph5-3" x="374.126" y="102.876"/>
</g>
<g style="fill:rgb(0%,0%,0%);fill-opacity:1;">
  <use xlink:href="#glyph0-12" x="378.4" y="100.715"/>
</g>
<path style="fill-rule:nonzero;fill:rgb(63.136292%,78.822327%,95.684814%);fill-opacity:1;stroke-width:0.3985;stroke-linecap:butt;stroke-linejoin:miter;stroke:rgb(0%,0%,0%);stroke-opacity:1;stroke-miterlimit:10;" d="M 297.148156 -122.889063 L 326.198937 -122.889063 L 326.198937 -100.209375 L 297.148156 -100.209375 Z M 297.148156 -122.889063 " transform="matrix(1,0,0,-1,87.137,24.025)"/>
<g style="fill:rgb(0%,0%,0%);fill-opacity:1;">
  <use xlink:href="#glyph1-1" x="394.99" y="137.964"/>
</g>
<g style="fill:rgb(0%,0%,0%);fill-opacity:1;">
  <use xlink:href="#glyph0-12" x="398.214" y="137.964"/>
</g>
<path style="fill-rule:nonzero;fill:rgb(55.293274%,89.802551%,63.136292%);fill-opacity:1;stroke-width:0.3985;stroke-linecap:butt;stroke-linejoin:miter;stroke:rgb(0%,0%,0%);stroke-opacity:1;stroke-miterlimit:10;" d="M -58.594031 -122.861719 C -58.594031 -115.033594 -64.937781 -108.685938 -72.765906 -108.685938 C -80.594031 -108.685938 -86.937781 -115.033594 -86.937781 -122.861719 C -86.937781 -130.689844 -80.594031 -137.033594 -72.765906 -137.033594 C -64.937781 -137.033594 -58.594031 -130.689844 -58.594031 -122.861719 Z M -58.594031 -122.861719 " transform="matrix(1,0,0,-1,87.137,24.025)"/>
<g style="fill:rgb(0%,0%,0%);fill-opacity:1;">
  <use xlink:href="#glyph1-5" x="5.09" y="149.276"/>
</g>
<g style="fill:rgb(0%,0%,0%);fill-opacity:1;">
  <use xlink:href="#glyph7-1" x="11.029" y="151.437"/>
</g>
<g style="fill:rgb(0%,0%,0%);fill-opacity:1;">
  <use xlink:href="#glyph5-3" x="19.86" y="151.437"/>
</g>
<path style="fill-rule:nonzero;fill:rgb(55.293274%,89.802551%,63.136292%);fill-opacity:1;stroke-width:0.3985;stroke-linecap:butt;stroke-linejoin:miter;stroke:rgb(0%,0%,0%);stroke-opacity:1;stroke-miterlimit:10;" d="M -20.152625 -122.861719 C -20.152625 -115.033594 -26.500281 -108.685938 -34.328406 -108.685938 C -42.156531 -108.685938 -48.500281 -115.033594 -48.500281 -122.861719 C -48.500281 -130.689844 -42.156531 -137.033594 -34.328406 -137.033594 C -26.500281 -137.033594 -20.152625 -130.689844 -20.152625 -122.861719 Z M -20.152625 -122.861719 " transform="matrix(1,0,0,-1,87.137,24.025)"/>
<g style="fill:rgb(0%,0%,0%);fill-opacity:1;">
  <use xlink:href="#glyph1-2" x="43.724" y="149.276"/>
</g>
<g style="fill:rgb(0%,0%,0%);fill-opacity:1;">
  <use xlink:href="#glyph7-1" x="49.501" y="151.437"/>
</g>
<g style="fill:rgb(0%,0%,0%);fill-opacity:1;">
  <use xlink:href="#glyph5-5" x="58.331" y="151.437"/>
</g>
<path style="fill-rule:nonzero;fill:rgb(55.293274%,89.802551%,63.136292%);fill-opacity:1;stroke-width:0.3985;stroke-linecap:butt;stroke-linejoin:miter;stroke:rgb(0%,0%,0%);stroke-opacity:1;stroke-miterlimit:10;" d="M -10.402625 -216.924219 C -10.402625 -209.096094 -16.750281 -202.752344 -24.5745 -202.752344 C -32.402625 -202.752344 -38.750281 -209.096094 -38.750281 -216.924219 C -38.750281 -224.752344 -32.402625 -231.096094 -24.5745 -231.096094 C -16.750281 -231.096094 -10.402625 -224.752344 -10.402625 -216.924219 Z M -10.402625 -216.924219 " transform="matrix(1,0,0,-1,87.137,24.025)"/>
<g style="fill:rgb(0%,0%,0%);fill-opacity:1;">
  <use xlink:href="#glyph1-6" x="59.052" y="243.337"/>
</g>
<g style="fill:rgb(0%,0%,0%);fill-opacity:1;">
  <use xlink:href="#glyph5-3" x="62.275" y="245.499"/>
</g>
<path style="fill-rule:nonzero;fill:rgb(55.293274%,89.802551%,63.136292%);fill-opacity:1;stroke-width:0.3985;stroke-linecap:butt;stroke-linejoin:miter;stroke:rgb(0%,0%,0%);stroke-opacity:1;stroke-miterlimit:10;" d="M 28.034875 -216.924219 C 28.034875 -209.096094 21.691125 -202.752344 13.863 -202.752344 C 6.034875 -202.752344 -0.308875 -209.096094 -0.308875 -216.924219 C -0.308875 -224.752344 6.034875 -231.096094 13.863 -231.096094 C 21.691125 -231.096094 28.034875 -224.752344 28.034875 -216.924219 Z M 28.034875 -216.924219 " transform="matrix(1,0,0,-1,87.137,24.025)"/>
<g style="fill:rgb(0%,0%,0%);fill-opacity:1;">
  <use xlink:href="#glyph1-7" x="95.716" y="243.337"/>
</g>
<g style="fill:rgb(0%,0%,0%);fill-opacity:1;">
  <use xlink:href="#glyph5-3" x="102.009" y="245.499"/>
</g>
<path style="fill-rule:nonzero;fill:rgb(55.293274%,89.802551%,63.136292%);fill-opacity:1;stroke-width:0.3985;stroke-linecap:butt;stroke-linejoin:miter;stroke:rgb(0%,0%,0%);stroke-opacity:1;stroke-miterlimit:10;" d="M 63.866906 -216.924219 C 63.866906 -209.096094 57.523156 -202.752344 49.695031 -202.752344 C 41.866906 -202.752344 35.523156 -209.096094 35.523156 -216.924219 C 35.523156 -224.752344 41.866906 -231.096094 49.695031 -231.096094 C 57.523156 -231.096094 63.866906 -224.752344 63.866906 -216.924219 Z M 63.866906 -216.924219 " transform="matrix(1,0,0,-1,87.137,24.025)"/>
<g style="fill:rgb(0%,0%,0%);fill-opacity:1;">
  <use xlink:href="#glyph1-8" x="132.348" y="243.337"/>
</g>
<g style="fill:rgb(0%,0%,0%);fill-opacity:1;">
  <use xlink:href="#glyph5-4" x="137.512" y="245.499"/>
</g>
<path style="fill-rule:nonzero;fill:rgb(55.293274%,89.802551%,63.136292%);fill-opacity:1;stroke-width:0.3985;stroke-linecap:butt;stroke-linejoin:miter;stroke:rgb(0%,0%,0%);stroke-opacity:1;stroke-miterlimit:10;" d="M 137.484094 -216.19375 C 137.484094 -208.365625 131.136437 -202.017969 123.312219 -202.017969 C 115.484094 -202.017969 109.136437 -208.365625 109.136437 -216.19375 C 109.136437 -224.017969 115.484094 -230.365625 123.312219 -230.365625 C 131.136437 -230.365625 137.484094 -224.017969 137.484094 -216.19375 Z M 137.484094 -216.19375 " transform="matrix(1,0,0,-1,87.137,24.025)"/>
<g style="fill:rgb(0%,0%,0%);fill-opacity:1;">
  <use xlink:href="#glyph1-5" x="203.63" y="242.606"/>
</g>
<g style="fill:rgb(0%,0%,0%);fill-opacity:1;">
  <use xlink:href="#glyph2-1" x="209.737" y="244.767"/>
</g>
<g style="fill:rgb(0%,0%,0%);fill-opacity:1;">
  <use xlink:href="#glyph5-4" x="213.459" y="244.767"/>
</g>
<path style="fill-rule:nonzero;fill:rgb(55.293274%,89.802551%,63.136292%);fill-opacity:1;stroke-width:0.3985;stroke-linecap:butt;stroke-linejoin:miter;stroke:rgb(0%,0%,0%);stroke-opacity:1;stroke-miterlimit:10;" d="M 101.652062 -216.19375 C 101.652062 -208.365625 95.304406 -202.017969 87.480187 -202.017969 C 79.652062 -202.017969 73.304406 -208.365625 73.304406 -216.19375 C 73.304406 -224.017969 79.652062 -230.365625 87.480187 -230.365625 C 95.304406 -230.365625 101.652062 -224.017969 101.652062 -216.19375 Z M 101.652062 -216.19375 " transform="matrix(1,0,0,-1,87.137,24.025)"/>
<g style="fill:rgb(0%,0%,0%);fill-opacity:1;">
  <use xlink:href="#glyph1-5" x="167.802" y="242.606"/>
</g>
<g style="fill:rgb(0%,0%,0%);fill-opacity:1;">
  <use xlink:href="#glyph2-1" x="173.909" y="244.767"/>
</g>
<g style="fill:rgb(0%,0%,0%);fill-opacity:1;">
  <use xlink:href="#glyph5-3" x="177.631" y="244.767"/>
</g>
<path style="fill-rule:nonzero;fill:rgb(55.293274%,89.802551%,63.136292%);fill-opacity:1;stroke-width:0.3985;stroke-linecap:butt;stroke-linejoin:miter;stroke:rgb(0%,0%,0%);stroke-opacity:1;stroke-miterlimit:10;" d="M 175.921594 -216.19375 C 175.921594 -208.365625 169.577844 -202.017969 161.749719 -202.017969 C 153.921594 -202.017969 147.577844 -208.365625 147.577844 -216.19375 C 147.577844 -224.017969 153.921594 -230.365625 161.749719 -230.365625 C 169.577844 -230.365625 175.921594 -224.017969 175.921594 -216.19375 Z M 175.921594 -216.19375 " transform="matrix(1,0,0,-1,87.137,24.025)"/>
<g style="fill:rgb(0%,0%,0%);fill-opacity:1;">
  <use xlink:href="#glyph1-5" x="243.96" y="242.606"/>
</g>
<g style="fill:rgb(0%,0%,0%);fill-opacity:1;">
  <use xlink:href="#glyph2-1" x="250.067" y="244.767"/>
</g>
<path style="fill-rule:nonzero;fill:rgb(55.293274%,89.802551%,63.136292%);fill-opacity:1;stroke-width:0.3985;stroke-linecap:butt;stroke-linejoin:miter;stroke:rgb(0%,0%,0%);stroke-opacity:1;stroke-miterlimit:10;" d="M 250.245812 -216.19375 C 250.245812 -208.365625 243.902062 -202.017969 236.073937 -202.017969 C 228.245812 -202.017969 221.898156 -208.365625 221.898156 -216.19375 C 221.898156 -224.017969 228.245812 -230.365625 236.073937 -230.365625 C 243.902062 -230.365625 250.245812 -224.017969 250.245812 -216.19375 Z M 250.245812 -216.19375 " transform="matrix(1,0,0,-1,87.137,24.025)"/>
<g style="fill:rgb(0%,0%,0%);fill-opacity:1;">
  <use xlink:href="#glyph1-2" x="316.591" y="242.606"/>
</g>
<g style="fill:rgb(0%,0%,0%);fill-opacity:1;">
  <use xlink:href="#glyph2-1" x="322.535" y="244.767"/>
</g>
<g style="fill:rgb(0%,0%,0%);fill-opacity:1;">
  <use xlink:href="#glyph5-5" x="326.257" y="244.767"/>
</g>
<path style="fill-rule:nonzero;fill:rgb(55.293274%,89.802551%,63.136292%);fill-opacity:1;stroke-width:0.3985;stroke-linecap:butt;stroke-linejoin:miter;stroke:rgb(0%,0%,0%);stroke-opacity:1;stroke-miterlimit:10;" d="M 214.413781 -216.19375 C 214.413781 -208.365625 208.070031 -202.017969 200.241906 -202.017969 C 192.413781 -202.017969 186.066125 -208.365625 186.066125 -216.19375 C 186.066125 -224.017969 192.413781 -230.365625 200.241906 -230.365625 C 208.070031 -230.365625 214.413781 -224.017969 214.413781 -216.19375 Z M 214.413781 -216.19375 " transform="matrix(1,0,0,-1,87.137,24.025)"/>
<g style="fill:rgb(0%,0%,0%);fill-opacity:1;">
  <use xlink:href="#glyph1-2" x="280.525" y="242.606"/>
</g>
<g style="fill:rgb(0%,0%,0%);fill-opacity:1;">
  <use xlink:href="#glyph2-1" x="286.469" y="244.767"/>
</g>
<g style="fill:rgb(0%,0%,0%);fill-opacity:1;">
  <use xlink:href="#glyph5-3" x="290.191" y="244.767"/>
</g>
<g clip-path="url(#clip1)" clip-rule="nonzero">
<path style=" stroke:none;fill-rule:nonzero;fill:rgb(55.293274%,89.802551%,63.136292%);fill-opacity:1;" d="M 361.164062 277.464844 C 361.164062 269.636719 354.820312 263.292969 346.992188 263.292969 C 339.164062 263.292969 332.820312 269.636719 332.820312 277.464844 C 332.820312 285.292969 339.164062 291.640625 346.992188 291.640625 C 354.820312 291.640625 361.164062 285.292969 361.164062 277.464844 Z M 361.164062 277.464844 "/>
</g>
<g clip-path="url(#clip2)" clip-rule="nonzero">
<path style="fill:none;stroke-width:0.3985;stroke-linecap:butt;stroke-linejoin:miter;stroke:rgb(0%,0%,0%);stroke-opacity:1;stroke-miterlimit:10;" d="M 274.027062 -253.439844 C 274.027062 -245.611719 267.683312 -239.267969 259.855187 -239.267969 C 252.027062 -239.267969 245.683312 -245.611719 245.683312 -253.439844 C 245.683312 -261.267969 252.027062 -267.615625 259.855187 -267.615625 C 267.683312 -267.615625 274.027062 -261.267969 274.027062 -253.439844 Z M 274.027062 -253.439844 " transform="matrix(1,0,0,-1,87.137,24.025)"/>
</g>
<g style="fill:rgb(0%,0%,0%);fill-opacity:1;">
  <use xlink:href="#glyph1-4" x="340.366" y="279.855"/>
</g>
<g style="fill:rgb(0%,0%,0%);fill-opacity:1;">
  <use xlink:href="#glyph5-2" x="345.502" y="282.016"/>
</g>
<g style="fill:rgb(0%,0%,0%);fill-opacity:1;">
  <use xlink:href="#glyph2-1" x="349.392" y="282.016"/>
</g>
<g clip-path="url(#clip3)" clip-rule="nonzero">
<path style=" stroke:none;fill-rule:nonzero;fill:rgb(55.293274%,89.802551%,63.136292%);fill-opacity:1;" d="M 399.605469 277.464844 C 399.605469 269.636719 393.257812 263.292969 385.429688 263.292969 C 377.601562 263.292969 371.257812 269.636719 371.257812 277.464844 C 371.257812 285.292969 377.601562 291.640625 385.429688 291.640625 C 393.257812 291.640625 399.605469 285.292969 399.605469 277.464844 Z M 399.605469 277.464844 "/>
</g>
<g clip-path="url(#clip4)" clip-rule="nonzero">
<path style="fill:none;stroke-width:0.3985;stroke-linecap:butt;stroke-linejoin:miter;stroke:rgb(0%,0%,0%);stroke-opacity:1;stroke-miterlimit:10;" d="M 312.468469 -253.439844 C 312.468469 -245.611719 306.120812 -239.267969 298.292687 -239.267969 C 290.464562 -239.267969 284.120812 -245.611719 284.120812 -253.439844 C 284.120812 -261.267969 290.464562 -267.615625 298.292687 -267.615625 C 306.120812 -267.615625 312.468469 -261.267969 312.468469 -253.439844 Z M 312.468469 -253.439844 " transform="matrix(1,0,0,-1,87.137,24.025)"/>
</g>
<g style="fill:rgb(0%,0%,0%);fill-opacity:1;">
  <use xlink:href="#glyph1-2" x="380.465" y="279.855"/>
</g>
<g style="fill:rgb(0%,0%,0%);fill-opacity:1;">
  <use xlink:href="#glyph2-1" x="386.409" y="282.016"/>
</g>
<path style="fill-rule:nonzero;fill:rgb(55.293274%,89.802551%,63.136292%);fill-opacity:1;stroke-width:0.3985;stroke-linecap:butt;stroke-linejoin:miter;stroke:rgb(0%,0%,0%);stroke-opacity:1;stroke-miterlimit:10;" d="M 282.843469 -110.174219 C 282.843469 -102.346094 276.499719 -96.002344 268.671594 -96.002344 C 260.843469 -96.002344 254.499719 -102.346094 254.499719 -110.174219 C 254.499719 -118.002344 260.843469 -124.346094 268.671594 -124.346094 C 276.499719 -124.346094 282.843469 -118.002344 282.843469 -110.174219 Z M 282.843469 -110.174219 " transform="matrix(1,0,0,-1,87.137,24.025)"/>
<g style="fill:rgb(0%,0%,0%);fill-opacity:1;">
  <use xlink:href="#glyph1-2" x="351.448" y="136.589"/>
</g>
<g style="fill:rgb(0%,0%,0%);fill-opacity:1;">
  <use xlink:href="#glyph5-6" x="357.225" y="138.75"/>
</g>
<path style="fill-rule:nonzero;fill:rgb(55.293274%,89.802551%,63.136292%);fill-opacity:1;stroke-width:0.3985;stroke-linecap:butt;stroke-linejoin:miter;stroke:rgb(0%,0%,0%);stroke-opacity:1;stroke-miterlimit:10;" d="M 306.628625 -147.424219 C 306.628625 -139.596094 300.280969 -133.248438 292.452844 -133.248438 C 284.624719 -133.248438 278.280969 -139.596094 278.280969 -147.424219 C 278.280969 -155.252344 284.624719 -161.596094 292.452844 -161.596094 C 300.280969 -161.596094 306.628625 -155.252344 306.628625 -147.424219 Z M 306.628625 -147.424219 " transform="matrix(1,0,0,-1,87.137,24.025)"/>
<g style="fill:rgb(0%,0%,0%);fill-opacity:1;">
  <use xlink:href="#glyph1-2" x="375.632" y="173.838"/>
</g>
<g style="fill:rgb(0%,0%,0%);fill-opacity:1;">
  <use xlink:href="#glyph5-7" x="381.409" y="175.999"/>
</g>
<g clip-path="url(#clip5)" clip-rule="nonzero">
<path style=" stroke:none;fill-rule:nonzero;fill:rgb(55.293274%,89.802551%,63.136292%);fill-opacity:1;" d="M 432.203125 171.449219 C 432.203125 163.621094 425.859375 157.273438 418.03125 157.273438 C 410.203125 157.273438 403.855469 163.621094 403.855469 171.449219 C 403.855469 179.277344 410.203125 185.621094 418.03125 185.621094 C 425.859375 185.621094 432.203125 179.277344 432.203125 171.449219 Z M 432.203125 171.449219 "/>
</g>
<g clip-path="url(#clip6)" clip-rule="nonzero">
<path style="fill:none;stroke-width:0.3985;stroke-linecap:butt;stroke-linejoin:miter;stroke:rgb(0%,0%,0%);stroke-opacity:1;stroke-miterlimit:10;" d="M 345.066125 -147.424219 C 345.066125 -139.596094 338.722375 -133.248438 330.89425 -133.248438 C 323.066125 -133.248438 316.718469 -139.596094 316.718469 -147.424219 C 316.718469 -155.252344 323.066125 -161.596094 330.89425 -161.596094 C 338.722375 -161.596094 345.066125 -155.252344 345.066125 -147.424219 Z M 345.066125 -147.424219 " transform="matrix(1,0,0,-1,87.137,24.025)"/>
</g>
<g style="fill:rgb(0%,0%,0%);fill-opacity:1;">
  <use xlink:href="#glyph1-2" x="413.147" y="173.838"/>
</g>
<g style="fill:rgb(0%,0%,0%);fill-opacity:1;">
  <use xlink:href="#glyph5-8" x="418.923" y="175.999"/>
</g>
<path style="fill:none;stroke-width:0.3985;stroke-linecap:butt;stroke-linejoin:miter;stroke:rgb(0%,0%,0%);stroke-opacity:1;stroke-miterlimit:10;" d="M -0.00028125 -24.025781 L -0.00028125 -38.197656 " transform="matrix(1,0,0,-1,87.137,24.025)"/>
<path style="fill:none;stroke-width:0.3985;stroke-linecap:butt;stroke-linejoin:miter;stroke:rgb(0%,0%,0%);stroke-opacity:1;stroke-miterlimit:10;" d="M -24.648719 -49.736719 L -53.547156 -49.736719 L -53.547156 -71.396875 " transform="matrix(1,0,0,-1,87.137,24.025)"/>
<path style="fill-rule:nonzero;fill:rgb(0%,0%,0%);fill-opacity:1;stroke-width:0.3985;stroke-linecap:butt;stroke-linejoin:miter;stroke:rgb(0%,0%,0%);stroke-opacity:1;stroke-miterlimit:10;" d="M 3.231544 -0.00087625 C 2.833106 0.09678 1.090919 0.647561 0.001075 1.249124 L 0.001075 -1.24697 C 1.090919 -0.649314 2.833106 -0.0985325 3.231544 -0.00087625 Z M 3.231544 -0.00087625 " transform="matrix(0,1,1,0,33.59072,95.4208)"/>
<g style="fill:rgb(0%,0%,0%);fill-opacity:1;">
  <use xlink:href="#glyph0-23" x="53.154" y="70.375"/>
</g>
<path style="fill:none;stroke-width:0.3985;stroke-linecap:butt;stroke-linejoin:miter;stroke:rgb(0%,0%,0%);stroke-opacity:1;stroke-miterlimit:10;" d="M -68.273719 -86.986719 L -72.765906 -86.986719 L -72.765906 -104.435938 " transform="matrix(1,0,0,-1,87.137,24.025)"/>
<path style="fill-rule:nonzero;fill:rgb(0%,0%,0%);fill-opacity:1;stroke-width:0.3985;stroke-linecap:butt;stroke-linejoin:miter;stroke:rgb(0%,0%,0%);stroke-opacity:1;stroke-miterlimit:10;" d="M 3.230846 -0.00012625 C 2.836315 0.09753 1.090221 0.648311 0.0003775 1.245967 L 0.0003775 -1.24622 C 1.090221 -0.648564 2.836315 -0.0977825 3.230846 -0.00012625 Z M 3.230846 -0.00012625 " transform="matrix(0,1,1,0,14.37122,128.46056)"/>
<g style="fill:rgb(0%,0%,0%);fill-opacity:1;">
  <use xlink:href="#glyph0-23" x="9.53" y="107.624"/>
</g>
<path style="fill:none;stroke-width:0.3985;stroke-linecap:butt;stroke-linejoin:miter;stroke:rgb(0%,0%,0%);stroke-opacity:1;stroke-miterlimit:10;" d="M -38.820594 -86.986719 L -34.328406 -86.986719 L -34.328406 -104.435938 " transform="matrix(1,0,0,-1,87.137,24.025)"/>
<path style="fill-rule:nonzero;fill:rgb(0%,0%,0%);fill-opacity:1;stroke-width:0.3985;stroke-linecap:butt;stroke-linejoin:miter;stroke:rgb(0%,0%,0%);stroke-opacity:1;stroke-miterlimit:10;" d="M 3.230846 -0.00162625 C 2.836315 0.09603 1.090221 0.646811 0.0003775 1.248374 L 0.0003775 -1.24772 C 1.090221 -0.646158 2.836315 -0.0953763 3.230846 -0.00162625 Z M 3.230846 -0.00162625 " transform="matrix(0,1,1,0,52.81022,128.46056)"/>
<g style="fill:rgb(0%,0%,0%);fill-opacity:1;">
  <use xlink:href="#glyph0-24" x="51.442" y="107.624"/>
</g>
<path style="fill:none;stroke-width:0.3985;stroke-linecap:butt;stroke-linejoin:miter;stroke:rgb(0%,0%,0%);stroke-opacity:1;stroke-miterlimit:10;" d="M 24.648156 -49.736719 L 52.128625 -49.736719 L 52.128625 -71.396875 " transform="matrix(1,0,0,-1,87.137,24.025)"/>
<path style="fill-rule:nonzero;fill:rgb(0%,0%,0%);fill-opacity:1;stroke-width:0.3985;stroke-linecap:butt;stroke-linejoin:miter;stroke:rgb(0%,0%,0%);stroke-opacity:1;stroke-miterlimit:10;" d="M 3.231544 -0.000445 C 2.833106 0.0972112 1.090919 0.647992 0.001075 1.245649 L 0.001075 -1.246539 C 1.090919 -0.648883 2.833106 -0.0981013 3.231544 -0.000445 Z M 3.231544 -0.000445 " transform="matrix(0,1,1,0,139.26607,95.4208)"/>
<g style="fill:rgb(0%,0%,0%);fill-opacity:1;">
  <use xlink:href="#glyph0-24" x="114.909" y="70.375"/>
</g>
<path style="fill:none;stroke-width:0.3985;stroke-linecap:butt;stroke-linejoin:miter;stroke:rgb(0%,0%,0%);stroke-opacity:1;stroke-miterlimit:10;" d="M 27.480187 -96.767969 L 18.4255 -96.767969 L 18.4255 -128.209375 " transform="matrix(1,0,0,-1,87.137,24.025)"/>
<path style="fill-rule:nonzero;fill:rgb(0%,0%,0%);fill-opacity:1;stroke-width:0.3985;stroke-linecap:butt;stroke-linejoin:miter;stroke:rgb(0%,0%,0%);stroke-opacity:1;stroke-miterlimit:10;" d="M 3.230644 0.00004 C 2.836113 0.0976962 1.090019 0.648477 0.000175 1.246134 L 0.000175 -1.246054 C 1.090019 -0.648398 2.836113 -0.0976163 3.230644 0.00004 Z M 3.230644 0.00004 " transform="matrix(0,1,1,0,105.56246,152.2342)"/>
<g style="fill:rgb(0%,0%,0%);fill-opacity:1;">
  <use xlink:href="#glyph0-23" x="105.282" y="117.406"/>
</g>
<path style="fill:none;stroke-width:0.3985;stroke-linecap:butt;stroke-linejoin:miter;stroke:rgb(0%,0%,0%);stroke-opacity:1;stroke-miterlimit:10;" d="M 3.698937 -143.799219 L -5.35575 -143.799219 L -5.35575 -165.459375 " transform="matrix(1,0,0,-1,87.137,24.025)"/>
<path style="fill-rule:nonzero;fill:rgb(0%,0%,0%);fill-opacity:1;stroke-width:0.3985;stroke-linecap:butt;stroke-linejoin:miter;stroke:rgb(0%,0%,0%);stroke-opacity:1;stroke-miterlimit:10;" d="M 3.231224 0.00106 C 2.832786 0.0987162 1.090599 0.649497 0.000755 1.247154 L 0.000755 -1.24894 C 1.090599 -0.647378 2.832786 -0.0965963 3.231224 0.00106 Z M 3.231224 0.00106 " transform="matrix(0,1,1,0,81.78019,189.48362)"/>
<g style="fill:rgb(0%,0%,0%);fill-opacity:1;">
  <use xlink:href="#glyph0-23" x="81.5" y="164.437"/>
</g>
<path style="fill:none;stroke-width:0.3985;stroke-linecap:butt;stroke-linejoin:miter;stroke:rgb(0%,0%,0%);stroke-opacity:1;stroke-miterlimit:10;" d="M -20.082313 -181.049219 L -24.5745 -181.049219 L -24.5745 -198.498438 " transform="matrix(1,0,0,-1,87.137,24.025)"/>
<path style="fill-rule:nonzero;fill:rgb(0%,0%,0%);fill-opacity:1;stroke-width:0.3985;stroke-linecap:butt;stroke-linejoin:miter;stroke:rgb(0%,0%,0%);stroke-opacity:1;stroke-miterlimit:10;" d="M 3.230526 0.0018 C 2.835995 0.09555 1.089901 0.646331 0.0000575 1.247894 L 0.0000575 -1.2482 C 1.089901 -0.646637 2.835995 -0.0958562 3.230526 0.0018 Z M 3.230526 0.0018 " transform="matrix(0,1,1,0,62.5607,222.52338)"/>
<g style="fill:rgb(0%,0%,0%);fill-opacity:1;">
  <use xlink:href="#glyph0-23" x="57.718" y="201.686"/>
</g>
<path style="fill:none;stroke-width:0.3985;stroke-linecap:butt;stroke-linejoin:miter;stroke:rgb(0%,0%,0%);stroke-opacity:1;stroke-miterlimit:10;" d="M 9.370812 -181.049219 L 13.863 -181.049219 L 13.863 -198.498438 " transform="matrix(1,0,0,-1,87.137,24.025)"/>
<path style="fill-rule:nonzero;fill:rgb(0%,0%,0%);fill-opacity:1;stroke-width:0.3985;stroke-linecap:butt;stroke-linejoin:miter;stroke:rgb(0%,0%,0%);stroke-opacity:1;stroke-miterlimit:10;" d="M 3.230526 0.00033 C 2.835995 0.0979862 1.089901 0.648767 0.0000575 1.246424 L 0.0000575 -1.245764 C 1.089901 -0.648108 2.835995 -0.0973263 3.230526 0.00033 Z M 3.230526 0.00033 " transform="matrix(0,1,1,0,100.99967,222.52338)"/>
<g style="fill:rgb(0%,0%,0%);fill-opacity:1;">
  <use xlink:href="#glyph0-24" x="99.631" y="201.686"/>
</g>
<path style="fill:none;stroke-width:0.3985;stroke-linecap:butt;stroke-linejoin:miter;stroke:rgb(0%,0%,0%);stroke-opacity:1;stroke-miterlimit:10;" d="M 33.152062 -143.799219 L 49.695031 -143.799219 L 49.695031 -198.498438 " transform="matrix(1,0,0,-1,87.137,24.025)"/>
<path style="fill-rule:nonzero;fill:rgb(0%,0%,0%);fill-opacity:1;stroke-width:0.3985;stroke-linecap:butt;stroke-linejoin:miter;stroke:rgb(0%,0%,0%);stroke-opacity:1;stroke-miterlimit:10;" d="M 3.230526 0.00036125 C 2.835995 0.0980175 1.089901 0.648799 0.0000575 1.246455 L 0.0000575 -1.245733 C 1.089901 -0.648076 2.835995 -0.097295 3.230526 0.00036125 Z M 3.230526 0.00036125 " transform="matrix(0,1,1,0,136.83167,222.52338)"/>
<g style="fill:rgb(0%,0%,0%);fill-opacity:1;">
  <use xlink:href="#glyph0-24" x="123.413" y="164.437"/>
</g>
<path style="fill:none;stroke-width:0.3985;stroke-linecap:butt;stroke-linejoin:miter;stroke:rgb(0%,0%,0%);stroke-opacity:1;stroke-miterlimit:10;" d="M 76.777062 -96.767969 L 90.948937 -96.767969 L 90.948937 -11.338281 L 234.343469 -11.338281 L 234.343469 -21.459375 " transform="matrix(1,0,0,-1,87.137,24.025)"/>
<path style="fill-rule:nonzero;fill:rgb(0%,0%,0%);fill-opacity:1;stroke-width:0.3985;stroke-linecap:butt;stroke-linejoin:miter;stroke:rgb(0%,0%,0%);stroke-opacity:1;stroke-miterlimit:10;" d="M 3.230644 -0.00093125 C 2.836113 0.096725 1.090019 0.647506 0.000175 1.249069 L 0.000175 -1.247025 C 1.090019 -0.649369 2.836113 -0.0985875 3.230644 -0.00093125 Z M 3.230644 -0.00093125 " transform="matrix(0,1,1,0,321.4814,45.4842)"/>
<g style="fill:rgb(0%,0%,0%);fill-opacity:1;">
  <use xlink:href="#glyph0-24" x="167.037" y="117.406"/>
</g>
<path style="fill:none;stroke-width:0.3985;stroke-linecap:butt;stroke-linejoin:miter;stroke:rgb(0%,0%,0%);stroke-opacity:1;stroke-miterlimit:10;" d="M 219.616906 -37.049219 L 175.128625 -37.049219 L 175.128625 -58.709375 " transform="matrix(1,0,0,-1,87.137,24.025)"/>
<path style="fill-rule:nonzero;fill:rgb(0%,0%,0%);fill-opacity:1;stroke-width:0.3985;stroke-linecap:butt;stroke-linejoin:miter;stroke:rgb(0%,0%,0%);stroke-opacity:1;stroke-miterlimit:10;" d="M 3.231224 -0.000185 C 2.832786 0.0974713 1.090599 0.648253 0.000755 1.245909 L 0.000755 -1.246279 C 1.090599 -0.648622 2.832786 -0.0978412 3.231224 -0.000185 Z M 3.231224 -0.000185 " transform="matrix(0,1,1,0,262.26581,82.73362)"/>
<g style="fill:rgb(0%,0%,0%);fill-opacity:1;">
  <use xlink:href="#glyph0-23" x="297.417" y="57.688"/>
</g>
<path style="fill:none;stroke-width:0.3985;stroke-linecap:butt;stroke-linejoin:miter;stroke:rgb(0%,0%,0%);stroke-opacity:1;stroke-miterlimit:10;" d="M 143.39425 -90.060938 L 118.745812 -90.060938 L 118.745812 -127.478906 " transform="matrix(1,0,0,-1,87.137,24.025)"/>
<path style="fill-rule:nonzero;fill:rgb(0%,0%,0%);fill-opacity:1;stroke-width:0.3985;stroke-linecap:butt;stroke-linejoin:miter;stroke:rgb(0%,0%,0%);stroke-opacity:1;stroke-miterlimit:10;" d="M 3.232035 -0.0018575 C 2.833598 0.0957987 1.09141 0.64658 0.00156625 1.248142 L 0.00156625 -1.247951 C 1.09141 -0.646389 2.833598 -0.0956075 3.232035 -0.0018575 Z M 3.232035 -0.0018575 " transform="matrix(0,1,1,0,205.88467,151.50234)"/>
<g style="fill:rgb(0%,0%,0%);fill-opacity:1;">
  <use xlink:href="#glyph0-23" x="221.194" y="110.696"/>
</g>
<path style="fill:none;stroke-width:0.3985;stroke-linecap:butt;stroke-linejoin:miter;stroke:rgb(0%,0%,0%);stroke-opacity:1;stroke-miterlimit:10;" d="M 104.023156 -143.06875 L 87.480187 -143.06875 L 87.480187 -197.767969 " transform="matrix(1,0,0,-1,87.137,24.025)"/>
<path style="fill-rule:nonzero;fill:rgb(0%,0%,0%);fill-opacity:1;stroke-width:0.3985;stroke-linecap:butt;stroke-linejoin:miter;stroke:rgb(0%,0%,0%);stroke-opacity:1;stroke-miterlimit:10;" d="M 3.231908 0.0017375 C 2.83347 0.0954875 1.091283 0.646269 0.00143875 1.247831 L 0.00143875 -1.248263 C 1.091283 -0.6467 2.83347 -0.0959188 3.231908 0.0017375 Z M 3.231908 0.0017375 " transform="matrix(0,1,1,0,174.61545,221.79153)"/>
<g style="fill:rgb(0%,0%,0%);fill-opacity:1;">
  <use xlink:href="#glyph0-23" x="181.821" y="163.705"/>
</g>
<path style="fill:none;stroke-width:0.3985;stroke-linecap:butt;stroke-linejoin:miter;stroke:rgb(0%,0%,0%);stroke-opacity:1;stroke-miterlimit:10;" d="M 133.472375 -143.06875 L 142.530969 -143.06875 L 142.530969 -164.725 " transform="matrix(1,0,0,-1,87.137,24.025)"/>
<path style="fill-rule:nonzero;fill:rgb(0%,0%,0%);fill-opacity:1;stroke-width:0.3985;stroke-linecap:butt;stroke-linejoin:miter;stroke:rgb(0%,0%,0%);stroke-opacity:1;stroke-miterlimit:10;" d="M 3.232615 0.00102875 C 2.834178 0.098685 1.09199 0.649466 -0.00176 1.247122 L -0.00176 -1.248971 C 1.09199 -0.647409 2.834178 -0.0966275 3.232615 0.00102875 Z M 3.232615 0.00102875 " transform="matrix(0,1,1,0,229.66694,188.75176)"/>
<g style="fill:rgb(0%,0%,0%);fill-opacity:1;">
  <use xlink:href="#glyph0-24" x="223.734" y="163.705"/>
</g>
<path style="fill:none;stroke-width:0.3985;stroke-linecap:butt;stroke-linejoin:miter;stroke:rgb(0%,0%,0%);stroke-opacity:1;stroke-miterlimit:10;" d="M 127.804406 -180.31875 L 123.312219 -180.31875 L 123.312219 -197.767969 " transform="matrix(1,0,0,-1,87.137,24.025)"/>
<path style="fill-rule:nonzero;fill:rgb(0%,0%,0%);fill-opacity:1;stroke-width:0.3985;stroke-linecap:butt;stroke-linejoin:miter;stroke:rgb(0%,0%,0%);stroke-opacity:1;stroke-miterlimit:10;" d="M 3.231908 0.00177875 C 2.83347 0.0955287 1.091283 0.64631 0.00143875 1.247872 L 0.00143875 -1.248221 C 1.091283 -0.646659 2.83347 -0.0958775 3.231908 0.00177875 Z M 3.231908 0.00177875 " transform="matrix(0,1,1,0,210.44744,221.79153)"/>
<g style="fill:rgb(0%,0%,0%);fill-opacity:1;">
  <use xlink:href="#glyph0-23" x="205.603" y="200.954"/>
</g>
<path style="fill:none;stroke-width:0.3985;stroke-linecap:butt;stroke-linejoin:miter;stroke:rgb(0%,0%,0%);stroke-opacity:1;stroke-miterlimit:10;" d="M 157.257531 -180.31875 L 161.749719 -180.31875 L 161.749719 -197.767969 " transform="matrix(1,0,0,-1,87.137,24.025)"/>
<path style="fill-rule:nonzero;fill:rgb(0%,0%,0%);fill-opacity:1;stroke-width:0.3985;stroke-linecap:butt;stroke-linejoin:miter;stroke:rgb(0%,0%,0%);stroke-opacity:1;stroke-miterlimit:10;" d="M 3.231908 0.00027875 C 2.83347 0.097935 1.091283 0.648716 0.00143875 1.246373 L 0.00143875 -1.245815 C 1.091283 -0.648159 2.83347 -0.0973775 3.231908 0.00027875 Z M 3.231908 0.00027875 " transform="matrix(0,1,1,0,248.88644,221.79153)"/>
<g style="fill:rgb(0%,0%,0%);fill-opacity:1;">
  <use xlink:href="#glyph0-24" x="247.516" y="200.954"/>
</g>
<path style="fill:none;stroke-width:0.3985;stroke-linecap:butt;stroke-linejoin:miter;stroke:rgb(0%,0%,0%);stroke-opacity:1;stroke-miterlimit:10;" d="M 206.863 -90.060938 L 231.511437 -90.060938 L 231.511437 -127.478906 " transform="matrix(1,0,0,-1,87.137,24.025)"/>
<path style="fill-rule:nonzero;fill:rgb(0%,0%,0%);fill-opacity:1;stroke-width:0.3985;stroke-linecap:butt;stroke-linejoin:miter;stroke:rgb(0%,0%,0%);stroke-opacity:1;stroke-miterlimit:10;" d="M 3.232035 0.0014575 C 2.833598 0.0991138 1.09141 0.649895 0.00156625 1.247551 L 0.00156625 -1.248542 C 1.09141 -0.64698 2.833598 -0.0961987 3.232035 0.0014575 Z M 3.232035 0.0014575 " transform="matrix(0,1,1,0,318.64698,151.50234)"/>
<g style="fill:rgb(0%,0%,0%);fill-opacity:1;">
  <use xlink:href="#glyph0-24" x="297.122" y="110.696"/>
</g>
<path style="fill:none;stroke-width:0.3985;stroke-linecap:butt;stroke-linejoin:miter;stroke:rgb(0%,0%,0%);stroke-opacity:1;stroke-miterlimit:10;" d="M 216.784875 -143.06875 L 200.241906 -143.06875 L 200.241906 -197.767969 " transform="matrix(1,0,0,-1,87.137,24.025)"/>
<path style="fill-rule:nonzero;fill:rgb(0%,0%,0%);fill-opacity:1;stroke-width:0.3985;stroke-linecap:butt;stroke-linejoin:miter;stroke:rgb(0%,0%,0%);stroke-opacity:1;stroke-miterlimit:10;" d="M 3.231908 0.00113625 C 2.83347 0.0987925 1.091283 0.649574 0.00143875 1.24723 L 0.00143875 -1.248864 C 1.091283 -0.647301 2.83347 -0.09652 3.231908 0.00113625 Z M 3.231908 0.00113625 " transform="matrix(0,1,1,0,287.37777,221.79153)"/>
<g style="fill:rgb(0%,0%,0%);fill-opacity:1;">
  <use xlink:href="#glyph0-23" x="294.582" y="163.705"/>
</g>
<path style="fill:none;stroke-width:0.3985;stroke-linecap:butt;stroke-linejoin:miter;stroke:rgb(0%,0%,0%);stroke-opacity:1;stroke-miterlimit:10;" d="M 246.234094 -143.06875 L 255.292687 -143.06875 L 255.292687 -164.725 " transform="matrix(1,0,0,-1,87.137,24.025)"/>
<path style="fill-rule:nonzero;fill:rgb(0%,0%,0%);fill-opacity:1;stroke-width:0.3985;stroke-linecap:butt;stroke-linejoin:miter;stroke:rgb(0%,0%,0%);stroke-opacity:1;stroke-miterlimit:10;" d="M 3.232615 0.0004375 C 2.834178 0.0980937 1.09199 0.648875 -0.00176 1.246531 L -0.00176 -1.245656 C 1.09199 -0.648 2.834178 -0.0972188 3.232615 0.0004375 Z M 3.232615 0.0004375 " transform="matrix(0,1,1,0,342.42925,188.75176)"/>
<g style="fill:rgb(0%,0%,0%);fill-opacity:1;">
  <use xlink:href="#glyph0-24" x="336.494" y="163.705"/>
</g>
<path style="fill:none;stroke-width:0.3985;stroke-linecap:butt;stroke-linejoin:miter;stroke:rgb(0%,0%,0%);stroke-opacity:1;stroke-miterlimit:10;" d="M 240.566125 -180.31875 L 236.073937 -180.31875 L 236.073937 -197.767969 " transform="matrix(1,0,0,-1,87.137,24.025)"/>
<path style="fill-rule:nonzero;fill:rgb(0%,0%,0%);fill-opacity:1;stroke-width:0.3985;stroke-linecap:butt;stroke-linejoin:miter;stroke:rgb(0%,0%,0%);stroke-opacity:1;stroke-miterlimit:10;" d="M 3.231908 0.0011875 C 2.83347 0.0988438 1.091283 0.649625 0.00143875 1.247281 L 0.00143875 -1.248812 C 1.091283 -0.64725 2.83347 -0.0964687 3.231908 0.0011875 Z M 3.231908 0.0011875 " transform="matrix(0,1,1,0,323.20975,221.79153)"/>
<g style="fill:rgb(0%,0%,0%);fill-opacity:1;">
  <use xlink:href="#glyph0-23" x="318.364" y="200.954"/>
</g>
<path style="fill:none;stroke-width:0.3985;stroke-linecap:butt;stroke-linejoin:miter;stroke:rgb(0%,0%,0%);stroke-opacity:1;stroke-miterlimit:10;" d="M 270.01925 -180.31875 L 279.073937 -180.31875 L 279.073937 -201.975 " transform="matrix(1,0,0,-1,87.137,24.025)"/>
<path style="fill-rule:nonzero;fill:rgb(0%,0%,0%);fill-opacity:1;stroke-width:0.3985;stroke-linecap:butt;stroke-linejoin:miter;stroke:rgb(0%,0%,0%);stroke-opacity:1;stroke-miterlimit:10;" d="M 3.229289 -0.0006025 C 2.834758 0.0970537 1.088664 0.647835 -0.00118 1.249397 L -0.00118 -1.246696 C 1.088664 -0.64904 2.834758 -0.0982588 3.229289 -0.0006025 Z M 3.229289 -0.0006025 " transform="matrix(0,1,1,0,366.21154,226.00118)"/>
<g style="fill:rgb(0%,0%,0%);fill-opacity:1;">
  <use xlink:href="#glyph0-24" x="360.276" y="200.954"/>
</g>
<path style="fill:none;stroke-width:0.3985;stroke-linecap:butt;stroke-linejoin:miter;stroke:rgb(0%,0%,0%);stroke-opacity:1;stroke-miterlimit:10;" d="M 264.347375 -217.56875 L 259.855187 -217.56875 L 259.855187 -235.014063 " transform="matrix(1,0,0,-1,87.137,24.025)"/>
<path style="fill-rule:nonzero;fill:rgb(0%,0%,0%);fill-opacity:1;stroke-width:0.3985;stroke-linecap:butt;stroke-linejoin:miter;stroke:rgb(0%,0%,0%);stroke-opacity:1;stroke-miterlimit:10;" d="M 3.232488 0.0001475 C 2.83405 0.0978037 1.091863 0.648585 -0.0018875 1.246241 L -0.0018875 -1.245946 C 1.091863 -0.64829 2.83405 -0.0975088 3.232488 0.0001475 Z M 3.232488 0.0001475 " transform="matrix(0,1,1,0,346.99204,259.04095)"/>
<g style="fill:rgb(0%,0%,0%);fill-opacity:1;">
  <use xlink:href="#glyph0-23" x="342.146" y="238.203"/>
</g>
<path style="fill:none;stroke-width:0.3985;stroke-linecap:butt;stroke-linejoin:miter;stroke:rgb(0%,0%,0%);stroke-opacity:1;stroke-miterlimit:10;" d="M 293.8005 -217.56875 L 298.292687 -217.56875 L 298.292687 -235.014063 " transform="matrix(1,0,0,-1,87.137,24.025)"/>
<path style="fill-rule:nonzero;fill:rgb(0%,0%,0%);fill-opacity:1;stroke-width:0.3985;stroke-linecap:butt;stroke-linejoin:miter;stroke:rgb(0%,0%,0%);stroke-opacity:1;stroke-miterlimit:10;" d="M 3.232488 -0.0013525 C 2.83405 0.0963038 1.091863 0.647085 -0.0018875 1.248648 L -0.0018875 -1.247446 C 1.091863 -0.64979 2.83405 -0.0990087 3.232488 -0.0013525 Z M 3.232488 -0.0013525 " transform="matrix(0,1,1,0,385.43104,259.04095)"/>
<g style="fill:rgb(0%,0%,0%);fill-opacity:1;">
  <use xlink:href="#glyph0-24" x="384.058" y="238.203"/>
</g>
<path style="fill:none;stroke-width:0.3985;stroke-linecap:butt;stroke-linejoin:miter;stroke:rgb(0%,0%,0%);stroke-opacity:1;stroke-miterlimit:10;" d="M 249.070031 -37.049219 L 287.890344 -37.049219 L 287.890344 -58.709375 " transform="matrix(1,0,0,-1,87.137,24.025)"/>
<path style="fill-rule:nonzero;fill:rgb(0%,0%,0%);fill-opacity:1;stroke-width:0.3985;stroke-linecap:butt;stroke-linejoin:miter;stroke:rgb(0%,0%,0%);stroke-opacity:1;stroke-miterlimit:10;" d="M 3.231224 -0.00058625 C 2.832786 0.09707 1.090599 0.647851 0.000755 1.249414 L 0.000755 -1.24668 C 1.090599 -0.649024 2.832786 -0.0982425 3.231224 -0.00058625 Z M 3.231224 -0.00058625 " transform="matrix(0,1,1,0,375.02793,82.73362)"/>
<g style="fill:rgb(0%,0%,0%);fill-opacity:1;">
  <use xlink:href="#glyph0-24" x="339.329" y="57.688"/>
</g>
<path style="fill:none;stroke-width:0.3985;stroke-linecap:butt;stroke-linejoin:miter;stroke:rgb(0%,0%,0%);stroke-opacity:1;stroke-miterlimit:10;" d="M 273.163781 -74.299219 L 268.671594 -74.299219 L 268.671594 -91.748438 " transform="matrix(1,0,0,-1,87.137,24.025)"/>
<path style="fill-rule:nonzero;fill:rgb(0%,0%,0%);fill-opacity:1;stroke-width:0.3985;stroke-linecap:butt;stroke-linejoin:miter;stroke:rgb(0%,0%,0%);stroke-opacity:1;stroke-miterlimit:10;" d="M 3.230526 0.00016375 C 2.835995 0.09782 1.089901 0.648601 0.0000575 1.246258 L 0.0000575 -1.24593 C 1.089901 -0.648274 2.835995 -0.0974925 3.230526 0.00016375 Z M 3.230526 0.00016375 " transform="matrix(0,1,1,0,355.80843,115.77338)"/>
<g style="fill:rgb(0%,0%,0%);fill-opacity:1;">
  <use xlink:href="#glyph0-23" x="350.962" y="94.937"/>
</g>
<path style="fill:none;stroke-width:0.3985;stroke-linecap:butt;stroke-linejoin:miter;stroke:rgb(0%,0%,0%);stroke-opacity:1;stroke-miterlimit:10;" d="M 302.616906 -74.299219 L 311.671594 -74.299219 L 311.671594 -95.959375 " transform="matrix(1,0,0,-1,87.137,24.025)"/>
<path style="fill-rule:nonzero;fill:rgb(0%,0%,0%);fill-opacity:1;stroke-width:0.3985;stroke-linecap:butt;stroke-linejoin:miter;stroke:rgb(0%,0%,0%);stroke-opacity:1;stroke-miterlimit:10;" d="M 3.231804 -0.00160625 C 2.833366 0.09605 1.091179 0.646831 0.001335 1.248394 L 0.001335 -1.2477 C 1.091179 -0.650044 2.833366 -0.0953563 3.231804 -0.00160625 Z M 3.231804 -0.00160625 " transform="matrix(0,1,1,0,398.8102,119.98304)"/>
<g style="fill:rgb(0%,0%,0%);fill-opacity:1;">
  <use xlink:href="#glyph0-24" x="392.875" y="94.937"/>
</g>
<path style="fill:none;stroke-width:0.3985;stroke-linecap:butt;stroke-linejoin:miter;stroke:rgb(0%,0%,0%);stroke-opacity:1;stroke-miterlimit:10;" d="M 296.948937 -111.549219 L 292.452844 -111.549219 L 292.452844 -128.998438 " transform="matrix(1,0,0,-1,87.137,24.025)"/>
<path style="fill-rule:nonzero;fill:rgb(0%,0%,0%);fill-opacity:1;stroke-width:0.3985;stroke-linecap:butt;stroke-linejoin:miter;stroke:rgb(0%,0%,0%);stroke-opacity:1;stroke-miterlimit:10;" d="M 3.231106 -0.00085625 C 2.832669 0.0968 1.090481 0.647581 0.0006375 1.249144 L 0.0006375 -1.24695 C 1.090481 -0.649294 2.832669 -0.0985125 3.231106 -0.00085625 Z M 3.231106 -0.00085625 " transform="matrix(0,1,1,0,379.5907,153.0228)"/>
<g style="fill:rgb(0%,0%,0%);fill-opacity:1;">
  <use xlink:href="#glyph0-23" x="374.744" y="132.186"/>
</g>
<path style="fill:none;stroke-width:0.3985;stroke-linecap:butt;stroke-linejoin:miter;stroke:rgb(0%,0%,0%);stroke-opacity:1;stroke-miterlimit:10;" d="M 326.398156 -111.549219 L 330.89425 -111.549219 L 330.89425 -128.998438 " transform="matrix(1,0,0,-1,87.137,24.025)"/>
<path style="fill-rule:nonzero;fill:rgb(0%,0%,0%);fill-opacity:1;stroke-width:0.3985;stroke-linecap:butt;stroke-linejoin:miter;stroke:rgb(0%,0%,0%);stroke-opacity:1;stroke-miterlimit:10;" d="M 3.231106 0.00155 C 2.832669 0.0953 1.090481 0.649988 0.0006375 1.247644 L 0.0006375 -1.24845 C 1.090481 -0.646887 2.832669 -0.0961062 3.231106 0.00155 Z M 3.231106 0.00155 " transform="matrix(0,1,1,0,418.0297,153.0228)"/>
<g style="fill:rgb(0%,0%,0%);fill-opacity:1;">
  <use xlink:href="#glyph0-24" x="416.657" y="132.186"/>
</g>
<path style="fill:none;stroke-width:0.3985;stroke-linecap:butt;stroke-linejoin:miter;stroke:rgb(0%,0%,0%);stroke-opacity:1;stroke-miterlimit:10;" d="M -82.929969 -141.529688 C -82.179969 -143.021875 -80.437781 -144.017969 -77.945594 -144.017969 L -58.527625 -144.017969 C -56.035438 -144.017969 -54.29325 -145.014063 -53.547156 -146.510156 C -52.797156 -145.014063 -51.054969 -144.017969 -48.566688 -144.017969 L -29.144813 -144.017969 C -26.652625 -144.017969 -24.910438 -143.021875 -24.164344 -141.529688 " transform="matrix(1,0,0,-1,87.137,24.025)"/>
<g style="fill:rgb(0%,0%,0%);fill-opacity:1;">
  <use xlink:href="#glyph0-3" x="6.195" y="179.496"/>
  <use xlink:href="#glyph0-8" x="8.892104" y="179.496"/>
  <use xlink:href="#glyph0-9" x="11.57008" y="179.496"/>
</g>
<g style="fill:rgb(0%,0%,0%);fill-opacity:1;">
  <use xlink:href="#glyph0-4" x="16.878211" y="179.496"/>
  <use xlink:href="#glyph0-10" x="21.574234" y="179.496"/>
  <use xlink:href="#glyph0-11" x="26.423283" y="179.496"/>
</g>
<g style="fill:rgb(0%,0%,0%);fill-opacity:1;">
  <use xlink:href="#glyph0-20" x="32.735655" y="179.496"/>
  <use xlink:href="#glyph0-11" x="37.737732" y="179.496"/>
  <use xlink:href="#glyph0-2" x="41.391256" y="179.496"/>
</g>
<g style="fill:rgb(0%,0%,0%);fill-opacity:1;">
  <use xlink:href="#glyph0-6" x="46.450718" y="179.496"/>
  <use xlink:href="#glyph0-25" x="51.892748" y="179.496"/>
  <use xlink:href="#glyph0-21" x="57.162622" y="179.496"/>
</g>
<path style="fill:none;stroke-width:0.3985;stroke-linecap:butt;stroke-linejoin:miter;stroke:rgb(0%,0%,0%);stroke-opacity:1;stroke-miterlimit:10;" d="M 3.698937 -235.592188 C 4.445031 -237.084375 6.191125 -238.080469 8.679406 -238.080469 L 26.796594 -238.080469 C 29.288781 -238.080469 31.030969 -239.076563 31.777062 -240.572656 C 32.527062 -239.076563 34.26925 -238.080469 36.761437 -238.080469 L 54.874719 -238.080469 C 57.366906 -238.080469 59.109094 -237.084375 59.859094 -235.592188 " transform="matrix(1,0,0,-1,87.137,24.025)"/>
<g style="fill:rgb(0%,0%,0%);fill-opacity:1;">
  <use xlink:href="#glyph0-5" x="92.624" y="273.558"/>
  <use xlink:href="#glyph0-6" x="96.889633" y="273.558"/>
  <use xlink:href="#glyph0-26" x="102.331663" y="273.558"/>
  <use xlink:href="#glyph0-8" x="107.486767" y="273.558"/>
</g>
<g style="fill:rgb(0%,0%,0%);fill-opacity:1;">
  <use xlink:href="#glyph0-5" x="110.030844" y="273.558"/>
</g>
<g style="fill:rgb(0%,0%,0%);fill-opacity:1;">
  <use xlink:href="#glyph0-20" x="116.955325" y="273.558"/>
  <use xlink:href="#glyph0-11" x="121.957401" y="273.558"/>
  <use xlink:href="#glyph0-2" x="125.610926" y="273.558"/>
</g>
<g style="fill:rgb(0%,0%,0%);fill-opacity:1;">
  <use xlink:href="#glyph0-6" x="130.670388" y="273.558"/>
  <use xlink:href="#glyph0-25" x="136.112417" y="273.558"/>
  <use xlink:href="#glyph0-21" x="141.382292" y="273.558"/>
</g>
</g>
</svg>
